multi_cycle/riscv_processor.vcd
$date
	Tue Dec 16 13:02:39 2025
$end
$version
	Icarus Verilog
$end
$timescale
	1s
$end
$scope module testbench $end
$var reg 1 ! clock $end
$var reg 1 " rst $end
$scope module dut $end
$var wire 1 ! clk $end
$var wire 1 " rst $end
$var wire 1 # we_rf $end
$var wire 1 $ we_pc_plus_4 $end
$var wire 1 % we_pc $end
$var wire 1 & we_mem $end
$var wire 1 ' we_ir $end
$var wire 1 ( we_alu_reg $end
$var wire 2 ) sel_result [1:0] $end
$var wire 1 * sel_mem_addr $end
$var wire 3 + sel_ext [2:0] $end
$var wire 2 , sel_alu_src_b [1:0] $end
$var wire 1 - sel_alu_src_a $end
$var wire 5 . rs2 [4:0] $end
$var wire 5 / rs1 [4:0] $end
$var wire 32 0 rf_write_data [31:0] $end
$var wire 32 1 result_mux1_out [31:0] $end
$var wire 32 2 result_mux0_out [31:0] $end
$var wire 32 3 rd2_reg_out [31:0] $end
$var wire 32 4 rd2 [31:0] $end
$var wire 32 5 rd1_reg_out [31:0] $end
$var wire 32 6 rd1 [31:0] $end
$var wire 5 7 rd [4:0] $end
$var wire 32 8 pc_plus_4 [31:0] $end
$var wire 32 9 pc [31:0] $end
$var wire 32 : mem_read_data [31:0] $end
$var wire 32 ; mem_address [31:0] $end
$var wire 32 < instruction [31:0] $end
$var wire 32 = imm_extended [31:0] $end
$var wire 32 > data_reg_out [31:0] $end
$var wire 32 ? alu_src_b [31:0] $end
$var wire 32 @ alu_src_a [31:0] $end
$var wire 32 A alu_result [31:0] $end
$var wire 32 B alu_reg_out [31:0] $end
$var wire 4 C alu_control [3:0] $end
$scope module MEM $end
$var wire 1 ! clock $end
$var wire 1 & write_enable $end
$var wire 32 D write_data [31:0] $end
$var wire 32 E address [31:0] $end
$var reg 32 F read_data [31:0] $end
$upscope $end
$scope module PC_reg $end
$var wire 1 ! clock $end
$var wire 1 " reset $end
$var wire 1 % write_enable $end
$var wire 32 G data_in [31:0] $end
$var reg 32 H data_out [31:0] $end
$upscope $end
$scope module alu $end
$var wire 4 I alu_control [3:0] $end
$var wire 32 J RD2 [31:0] $end
$var wire 32 K RD1 [31:0] $end
$var reg 32 L addition_result [31:0] $end
$var reg 32 M alu_result [31:0] $end
$var reg 32 N shifted_operand_b [31:0] $end
$upscope $end
$scope module alu_reg $end
$var wire 1 ! clock $end
$var wire 32 O data_in [31:0] $end
$var wire 1 " reset $end
$var wire 1 ( write_enable $end
$var reg 32 P data_out [31:0] $end
$upscope $end
$scope module controller $end
$var wire 1 ! clk $end
$var wire 1 " rst $end
$var wire 1 # we_rf $end
$var wire 1 $ we_pc_plus_4 $end
$var wire 1 % we_pc $end
$var wire 1 & we_mem $end
$var wire 1 ' we_ir $end
$var wire 1 ( we_alu_reg $end
$var wire 2 Q sel_result [1:0] $end
$var wire 1 * sel_mem_addr $end
$var wire 3 R sel_ext [2:0] $end
$var wire 2 S sel_alu_src_b [1:0] $end
$var wire 1 - sel_alu_src_a $end
$var wire 7 T opcode [6:0] $end
$var wire 32 U instruction [31:0] $end
$var wire 1 V funct7_bit5 $end
$var wire 3 W funct3 [2:0] $end
$var wire 2 X alu_op [1:0] $end
$var wire 4 Y alu_control [3:0] $end
$scope module alu_decoder $end
$var wire 3 Z funct3 [2:0] $end
$var wire 1 V funct7_bit5 $end
$var wire 2 [ alu_op [1:0] $end
$var reg 4 \ alu_control [3:0] $end
$upscope $end
$scope module fsm $end
$var wire 1 ! clk $end
$var wire 1 " rst $end
$var wire 7 ] opcode [6:0] $end
$var reg 2 ^ alu_op [1:0] $end
$var reg 10 _ current_state [9:0] $end
$var reg 10 ` next_state [9:0] $end
$var reg 1 - sel_alu_src_a $end
$var reg 2 a sel_alu_src_b [1:0] $end
$var reg 1 * sel_mem_addr $end
$var reg 2 b sel_result [1:0] $end
$var reg 1 ( we_alu_reg $end
$var reg 1 ' we_ir $end
$var reg 1 & we_mem $end
$var reg 1 % we_pc $end
$var reg 1 $ we_pc_plus_4 $end
$var reg 1 # we_rf $end
$upscope $end
$scope module instr_decoder $end
$var wire 7 c opcode [6:0] $end
$var wire 32 d instruction [31:0] $end
$var reg 3 e sel_ext [2:0] $end
$upscope $end
$upscope $end
$scope module data_reg $end
$var wire 1 ! clock $end
$var wire 32 f data_in [31:0] $end
$var wire 1 " reset $end
$var wire 1 g write_enable $end
$var reg 32 h data_out [31:0] $end
$upscope $end
$scope module instr_reg $end
$var wire 1 ! clock $end
$var wire 32 i data_in [31:0] $end
$var wire 1 " reset $end
$var wire 1 ' write_enable $end
$var reg 32 j data_out [31:0] $end
$upscope $end
$scope module mux_alu_src_a $end
$var wire 32 k input2 [31:0] $end
$var wire 1 - sel $end
$var wire 32 l out [31:0] $end
$var wire 32 m input1 [31:0] $end
$upscope $end
$scope module mux_alu_src_b $end
$var wire 32 n input2 [31:0] $end
$var wire 2 o sel [1:0] $end
$var wire 32 p out [31:0] $end
$var wire 32 q input1 [31:0] $end
$var wire 32 r input0 [31:0] $end
$upscope $end
$scope module mux_mem_addr $end
$var wire 32 s input1 [31:0] $end
$var wire 32 t input2 [31:0] $end
$var wire 1 * sel $end
$var wire 32 u out [31:0] $end
$upscope $end
$scope module mux_result $end
$var wire 1 v sel $end
$var wire 32 w out [31:0] $end
$var wire 32 x input2 [31:0] $end
$var wire 32 y input1 [31:0] $end
$upscope $end
$scope module mux_result_0 $end
$var wire 32 z input1 [31:0] $end
$var wire 32 { input2 [31:0] $end
$var wire 1 | sel $end
$var wire 32 } out [31:0] $end
$upscope $end
$scope module mux_result_1 $end
$var wire 1 ~ sel $end
$var wire 32 !" out [31:0] $end
$var wire 32 "" input2 [31:0] $end
$var wire 32 #" input1 [31:0] $end
$upscope $end
$scope module pc_plus_4_reg $end
$var wire 1 ! clock $end
$var wire 32 $" data_in [31:0] $end
$var wire 1 " reset $end
$var wire 1 $ write_enable $end
$var reg 32 %" data_out [31:0] $end
$upscope $end
$scope module rd1_reg $end
$var wire 1 ! clock $end
$var wire 1 " reset $end
$var wire 1 &" write_enable $end
$var wire 32 '" data_in [31:0] $end
$var reg 32 (" data_out [31:0] $end
$upscope $end
$scope module rd2_reg $end
$var wire 1 ! clock $end
$var wire 1 " reset $end
$var wire 1 )" write_enable $end
$var wire 32 *" data_in [31:0] $end
$var reg 32 +" data_out [31:0] $end
$upscope $end
$scope module rf $end
$var wire 1 ! clock $end
$var wire 5 ," read_address_1 [4:0] $end
$var wire 5 -" read_address_2 [4:0] $end
$var wire 5 ." write_address [4:0] $end
$var wire 32 /" write_data [31:0] $end
$var wire 1 # write_enable $end
$var reg 32 0" read_data_1 [31:0] $end
$var reg 32 1" read_data_2 [31:0] $end
$upscope $end
$scope module sign_ext $end
$var wire 32 2" instruction [31:0] $end
$var wire 3 3" sel_ext [2:0] $end
$var reg 32 4" imm_extended [31:0] $end
$var reg 12 5" immediate_12bit [11:0] $end
$var reg 13 6" immediate_13bit [12:0] $end
$var reg 20 7" immediate_20bit [19:0] $end
$var reg 21 8" immediate_21bit [20:0] $end
$var reg 1 9" sign_bit $end
$upscope $end
$upscope $end
$upscope $end
$enddefinitions $end
#0
$dumpvars
09"
bx 8"
bx 7"
bx 6"
b0 5"
b0 4"
b0 3"
b0 2"
b0 1"
b0 0"
b0 /"
b0 ."
b0 -"
b0 ,"
b0 +"
b0 *"
1)"
b0 ("
b0 '"
1&"
b0 %"
b0 $"
b0 #"
b0 ""
b0 !"
0~
b0 }
0|
b0 {
b0 z
b0 y
b0 x
b0 w
0v
b0 u
b0 t
b0 s
b0 r
b0 q
b0 p
b0 o
b100 n
b0 m
b0 l
b0 k
b0 j
b10100000000000010010011 i
b0 h
1g
b10100000000000010010011 f
b0 e
b0 d
b0 c
b0 b
b0 a
b1 `
bx _
b0 ^
b0 ]
b0 \
b0 [
b0 Z
b0 Y
b0 X
b0 W
0V
b0 U
b0 T
b0 S
b0 R
b0 Q
b0 P
b0 O
b0 N
b0 M
b0 L
b0 K
b0 J
b0 I
b0 H
b0 G
b10100000000000010010011 F
b0 E
b0 D
b0 C
b0 B
b0 A
b0 @
b0 ?
b0 >
b0 =
b0 <
b0 ;
b10100000000000010010011 :
b0 9
b0 8
b0 7
b0 6
b0 5
b0 4
b0 3
b0 2
b0 1
b0 0
b0 /
b0 .
0-
b0 ,
b0 +
0*
b0 )
0(
0'
0&
0%
0$
0#
1"
0!
$end
#20
0"
#30
b100 A
b100 G
b100 M
b100 O
b100 $"
b100 L
b100 N
1v
b100 ?
b100 J
b100 p
b10 `
1$
1%
b10 )
b10 Q
b10 b
b10 ,
b10 S
b10 a
b10 o
1'
b1 _
b10100000000000010010011 >
b10100000000000010010011 h
b10100000000000010010011 z
1!
#40
0!
#50
b0 N
0v
b0 ?
b0 J
b0 p
b100 A
b100 G
b100 M
b100 O
b100 $"
b100 L
b101000000000000100010011 :
b101000000000000100010011 F
b101000000000000100010011 f
b101000000000000100010011 i
bx 4
bx *"
bx 1"
b0 0
b0 w
b0 /"
0$
0%
b0 )
b0 Q
b0 b
b0 ,
b0 S
b0 a
b0 o
0'
b100000000 `
b100 @
b100 K
b100 l
b100 ;
b100 E
b100 u
b10011 T
b10011 ]
b10011 c
b1 7
b1 ."
b101 .
b101 -"
b101 =
b101 q
b101 #"
b101 4"
b101 5"
b100 1
b100 y
b100 !"
b10 _
b100 9
b100 H
b100 k
b100 t
b10100000000000010010011 <
b10100000000000010010011 U
b10100000000000010010011 d
b10100000000000010010011 j
b10100000000000010010011 2"
b100 8
b100 ""
b100 %"
1!
#60
0!
#70
b0 @
b0 K
b0 l
b101 A
b101 G
b101 M
b101 O
b101 $"
b101 L
b101 N
b10000000 `
1(
b10 X
b10 [
b10 ^
b1 ,
b1 S
b1 a
b1 o
1-
b101 ?
b101 J
b101 p
b100000000 _
b101000000000000100010011 >
b101000000000000100010011 h
b101000000000000100010011 z
bx 3
bx D
bx r
bx +"
1!
#80
0!
#90
bx A
bx G
bx M
bx O
bx $"
bx L
bx N
bx ?
bx J
bx p
b100 @
b100 K
b100 l
b101 0
b101 w
b101 /"
1#
0(
b0 X
b0 [
b0 ^
b0 ,
b0 S
b0 a
b0 o
0-
b1 `
b101 2
b101 x
b101 }
b10000000 _
b101 B
b101 P
b101 s
b101 {
1!
#100
0!
#110
b100 0
b100 w
b100 /"
b1000 A
b1000 G
b1000 M
b1000 O
b1000 $"
b1000 L
b100 N
1v
b100 ?
b100 J
b100 p
b10 `
1$
1%
b10 )
b10 Q
b10 b
b10 ,
b10 S
b10 a
b10 o
1'
0#
b1 _
1!
#120
0!
#130
bx N
0v
bx ?
bx J
bx p
bx A
bx G
bx M
bx O
bx $"
bx L
b100001010000110010011 :
b100001010000110010011 F
b100001010000110010011 f
b100001010000110010011 i
b101 0
b101 w
b101 /"
0$
0%
b0 )
b0 Q
b0 b
b0 ,
b0 S
b0 a
b0 o
0'
b100000000 `
b1000 @
b1000 K
b1000 l
b1000 ;
b1000 E
b1000 u
b10 7
b10 ."
b1010 .
b1010 -"
b1010 =
b1010 q
b1010 #"
b1010 4"
b1010 5"
b1000 1
b1000 y
b1000 !"
b10 _
b1000 9
b1000 H
b1000 k
b1000 t
b101000000000000100010011 <
b101000000000000100010011 U
b101000000000000100010011 d
b101000000000000100010011 j
b101000000000000100010011 2"
b1000 8
b1000 ""
b1000 %"
1!
#140
0!
#150
b1010 A
b1010 G
b1010 M
b1010 O
b1010 $"
b1010 L
b1010 N
b1010 ?
b1010 J
b1010 p
b0 @
b0 K
b0 l
b10000000 `
1(
b10 X
b10 [
b10 ^
b1 ,
b1 S
b1 a
b1 o
1-
b100000000 _
b100001010000110010011 >
b100001010000110010011 h
b100001010000110010011 z
1!
#160
0!
#170
bx A
bx G
bx M
bx O
bx $"
bx L
bx N
bx ?
bx J
bx p
b1000 @
b1000 K
b1000 l
b1010 0
b1010 w
b1010 /"
1#
0(
b0 X
b0 [
b0 ^
b0 ,
b0 S
b0 a
b0 o
0-
b1 `
b1010 2
b1010 x
b1010 }
b10000000 _
b1010 B
b1010 P
b1010 s
b1010 {
1!
#180
0!
#190
b1000 0
b1000 w
b1000 /"
b1100 A
b1100 G
b1100 M
b1100 O
b1100 $"
b1100 L
b100 N
1v
b100 ?
b100 J
b100 p
b10 `
1$
1%
b10 )
b10 Q
b10 b
b10 ,
b10 S
b10 a
b10 o
1'
0#
b1 _
1!
#200
0!
#210
bx N
0v
bx ?
bx J
bx p
bx A
bx G
bx M
bx O
bx $"
bx L
b100001011001000010011 :
b100001011001000010011 F
b100001011001000010011 f
b100001011001000010011 i
b101 4
b101 *"
b101 1"
b101 6
b101 '"
b101 0"
b1010 0
b1010 w
b1010 /"
0$
0%
b0 )
b0 Q
b0 b
b0 ,
b0 S
b0 a
b0 o
0'
b100000000 `
b1100 @
b1100 K
b1100 l
b1100 ;
b1100 E
b1100 u
b10 W
b10 Z
b11 7
b11 ."
b1 .
b1 -"
b1 /
b1 ,"
b1 =
b1 q
b1 #"
b1 4"
b1 5"
b1100 1
b1100 y
b1100 !"
b10 _
b1100 9
b1100 H
b1100 k
b1100 t
b100001010000110010011 <
b100001010000110010011 U
b100001010000110010011 d
b100001010000110010011 j
b100001010000110010011 2"
b1100 8
b1100 ""
b1100 %"
1!
#220
0!
#230
b100 C
b100 I
b100 Y
b100 \
b101 @
b101 K
b101 l
b0 A
b0 G
b0 M
b0 O
b0 $"
b110 L
b1 N
b10000000 `
1(
b10 X
b10 [
b10 ^
b1 ,
b1 S
b1 a
b1 o
1-
b1 ?
b1 J
b1 p
b100000000 _
b100001011001000010011 >
b100001011001000010011 h
b100001011001000010011 z
b101 3
b101 D
b101 r
b101 +"
b101 5
b101 m
b101 ("
1!
#240
0!
#250
b10001 A
b10001 G
b10001 M
b10001 O
b10001 $"
b10001 L
b101 N
b0 C
b0 I
b0 Y
b0 \
b101 ?
b101 J
b101 p
b1100 @
b1100 K
b1100 l
b0 0
b0 w
b0 /"
1#
0(
b0 X
b0 [
b0 ^
b0 ,
b0 S
b0 a
b0 o
0-
b1 `
b0 2
b0 x
b0 }
b10000000 _
b0 B
b0 P
b0 s
b0 {
1!
#260
0!
#270
b1100 0
b1100 w
b1100 /"
b10000 A
b10000 G
b10000 M
b10000 O
b10000 $"
b10000 L
b100 N
1v
b100 ?
b100 J
b100 p
b10 `
1$
1%
b10 )
b10 Q
b10 b
b10 ,
b10 S
b10 a
b10 o
1'
0#
b1 _
1!
#280
0!
#290
b101 N
0v
b101 ?
b101 J
b101 p
b10101 A
b10101 G
b10101 M
b10101 O
b10101 $"
b10101 L
b100001100001010010011 :
b100001100001010010011 F
b100001100001010010011 f
b100001100001010010011 i
b0 0
b0 w
b0 /"
0$
0%
b0 )
b0 Q
b0 b
b0 ,
b0 S
b0 a
b0 o
0'
b100000000 `
b10000 @
b10000 K
b10000 l
b10000 ;
b10000 E
b10000 u
b11 W
b11 Z
b100 7
b100 ."
b10000 1
b10000 y
b10000 !"
b10 _
b10000 9
b10000 H
b10000 k
b10000 t
b100001011001000010011 <
b100001011001000010011 U
b100001011001000010011 d
b100001011001000010011 j
b100001011001000010011 2"
b10000 8
b10000 ""
b10000 %"
1!
#300
0!
#310
b0 A
b0 G
b0 M
b0 O
b0 $"
b110 L
b1 N
b110 C
b110 I
b110 Y
b110 \
b1 ?
b1 J
b1 p
b101 @
b101 K
b101 l
b10000000 `
1(
b10 X
b10 [
b10 ^
b1 ,
b1 S
b1 a
b1 o
1-
b100000000 _
b100001100001010010011 >
b100001100001010010011 h
b100001100001010010011 z
1!
#320
0!
#330
b10101 A
b10101 G
b10101 M
b10101 O
b10101 $"
b10101 L
b101 N
b0 C
b0 I
b0 Y
b0 \
b101 ?
b101 J
b101 p
b10000 @
b10000 K
b10000 l
1#
0(
b0 X
b0 [
b0 ^
b0 ,
b0 S
b0 a
b0 o
0-
b1 `
b10000000 _
1!
#340
0!
#350
b10000 0
b10000 w
b10000 /"
b10100 A
b10100 G
b10100 M
b10100 O
b10100 $"
b10100 L
b100 N
1v
b100 ?
b100 J
b100 p
b10 `
1$
1%
b10 )
b10 Q
b10 b
b10 ,
b10 S
b10 a
b10 o
1'
0#
b1 _
1!
#360
0!
#370
b101 N
0v
b101 ?
b101 J
b101 p
b11001 A
b11001 G
b11001 M
b11001 O
b11001 $"
b11001 L
b100001110001100010011 :
b100001110001100010011 F
b100001110001100010011 f
b100001110001100010011 i
b0 0
b0 w
b0 /"
0$
0%
b0 )
b0 Q
b0 b
b0 ,
b0 S
b0 a
b0 o
0'
b100000000 `
b10100 @
b10100 K
b10100 l
b10100 ;
b10100 E
b10100 u
b100 W
b100 Z
b101 7
b101 ."
b10100 1
b10100 y
b10100 !"
b10 _
b10100 9
b10100 H
b10100 k
b10100 t
b100001100001010010011 <
b100001100001010010011 U
b100001100001010010011 d
b100001100001010010011 j
b100001100001010010011 2"
b10100 8
b10100 ""
b10100 %"
1!
#380
0!
#390
b100 A
b100 G
b100 M
b100 O
b100 $"
b110 L
b1 N
b1000 C
b1000 I
b1000 Y
b1000 \
b1 ?
b1 J
b1 p
b101 @
b101 K
b101 l
b10000000 `
1(
b10 X
b10 [
b10 ^
b1 ,
b1 S
b1 a
b1 o
1-
b100000000 _
b100001110001100010011 >
b100001110001100010011 h
b100001110001100010011 z
1!
#400
0!
#410
b11001 A
b11001 G
b11001 M
b11001 O
b11001 $"
b11001 L
b101 N
b0 C
b0 I
b0 Y
b0 \
b101 ?
b101 J
b101 p
b10100 @
b10100 K
b10100 l
b100 0
b100 w
b100 /"
1#
0(
b0 X
b0 [
b0 ^
b0 ,
b0 S
b0 a
b0 o
0-
b1 `
b100 2
b100 x
b100 }
b10000000 _
b100 B
b100 P
b100 s
b100 {
1!
#420
0!
#430
b10100 0
b10100 w
b10100 /"
b11000 A
b11000 G
b11000 M
b11000 O
b11000 $"
b11000 L
b100 N
1v
b100 ?
b100 J
b100 p
b10 `
1$
1%
b10 )
b10 Q
b10 b
b10 ,
b10 S
b10 a
b10 o
1'
0#
b1 _
1!
#440
0!
#450
b101 N
0v
b101 ?
b101 J
b101 p
b11101 A
b11101 G
b11101 M
b11101 O
b11101 $"
b11101 L
b100001111001110010011 :
b100001111001110010011 F
b100001111001110010011 f
b100001111001110010011 i
b100 0
b100 w
b100 /"
0$
0%
b0 )
b0 Q
b0 b
b0 ,
b0 S
b0 a
b0 o
0'
b100000000 `
b11000 @
b11000 K
b11000 l
b11000 ;
b11000 E
b11000 u
b110 W
b110 Z
b110 7
b110 ."
b11000 1
b11000 y
b11000 !"
b10 _
b11000 9
b11000 H
b11000 k
b11000 t
b100001110001100010011 <
b100001110001100010011 U
b100001110001100010011 d
b100001110001100010011 j
b100001110001100010011 2"
b11000 8
b11000 ""
b11000 %"
1!
#460
0!
#470
b101 A
b101 G
b101 M
b101 O
b101 $"
b110 L
b1 N
b1100 C
b1100 I
b1100 Y
b1100 \
b1 ?
b1 J
b1 p
b101 @
b101 K
b101 l
b10000000 `
1(
b10 X
b10 [
b10 ^
b1 ,
b1 S
b1 a
b1 o
1-
b100000000 _
b100001111001110010011 >
b100001111001110010011 h
b100001111001110010011 z
1!
#480
0!
#490
b11101 A
b11101 G
b11101 M
b11101 O
b11101 $"
b11101 L
b101 N
b0 C
b0 I
b0 Y
b0 \
b101 ?
b101 J
b101 p
b11000 @
b11000 K
b11000 l
b101 0
b101 w
b101 /"
1#
0(
b0 X
b0 [
b0 ^
b0 ,
b0 S
b0 a
b0 o
0-
b1 `
b101 2
b101 x
b101 }
b10000000 _
b101 B
b101 P
b101 s
b101 {
1!
#500
0!
#510
b11000 0
b11000 w
b11000 /"
b11100 A
b11100 G
b11100 M
b11100 O
b11100 $"
b11100 L
b100 N
1v
b100 ?
b100 J
b100 p
b10 `
1$
1%
b10 )
b10 Q
b10 b
b10 ,
b10 S
b10 a
b10 o
1'
0#
b1 _
1!
#520
0!
#530
b101 N
0v
b101 ?
b101 J
b101 p
b100001 A
b100001 G
b100001 M
b100001 O
b100001 $"
b100001 L
b100001001000100010011 :
b100001001000100010011 F
b100001001000100010011 f
b100001001000100010011 i
b101 0
b101 w
b101 /"
0$
0%
b0 )
b0 Q
b0 b
b0 ,
b0 S
b0 a
b0 o
0'
b100000000 `
b11100 @
b11100 K
b11100 l
b11100 ;
b11100 E
b11100 u
b111 W
b111 Z
b111 7
b111 ."
b11100 1
b11100 y
b11100 !"
b10 _
b11100 9
b11100 H
b11100 k
b11100 t
b100001111001110010011 <
b100001111001110010011 U
b100001111001110010011 d
b100001111001110010011 j
b100001111001110010011 2"
b11100 8
b11100 ""
b11100 %"
1!
#540
0!
#550
b1 A
b1 G
b1 M
b1 O
b1 $"
b110 L
b1 N
b1110 C
b1110 I
b1110 Y
b1110 \
b1 ?
b1 J
b1 p
b101 @
b101 K
b101 l
b10000000 `
1(
b10 X
b10 [
b10 ^
b1 ,
b1 S
b1 a
b1 o
1-
b100000000 _
b100001001000100010011 >
b100001001000100010011 h
b100001001000100010011 z
1!
#560
0!
#570
b100001 A
b100001 G
b100001 M
b100001 O
b100001 $"
b100001 L
b101 N
b0 C
b0 I
b0 Y
b0 \
b101 ?
b101 J
b101 p
b11100 @
b11100 K
b11100 l
b1 0
b1 w
b1 /"
1#
0(
b0 X
b0 [
b0 ^
b0 ,
b0 S
b0 a
b0 o
0-
b1 `
b1 2
b1 x
b1 }
b10000000 _
b1 B
b1 P
b1 s
b1 {
1!
#580
0!
#590
b11100 0
b11100 w
b11100 /"
b100000 A
b100000 G
b100000 M
b100000 O
b100000 $"
b100000 L
b100 N
1v
b100 ?
b100 J
b100 p
b10 `
1$
1%
b10 )
b10 Q
b10 b
b10 ,
b10 S
b10 a
b10 o
1'
0#
b1 _
1!
#600
0!
#610
b101 N
0v
b101 ?
b101 J
b101 p
b100101 A
b100101 G
b100101 M
b100101 O
b100101 $"
b100101 L
b100001101000110010011 :
b100001101000110010011 F
b100001101000110010011 f
b100001101000110010011 i
b1 0
b1 w
b1 /"
0$
0%
b0 )
b0 Q
b0 b
b0 ,
b0 S
b0 a
b0 o
0'
b100000000 `
b100000 @
b100000 K
b100000 l
b100000 ;
b100000 E
b100000 u
b1 W
b1 Z
b10 7
b10 ."
b100000 1
b100000 y
b100000 !"
b10 _
b100000 9
b100000 H
b100000 k
b100000 t
b100001001000100010011 <
b100001001000100010011 U
b100001001000100010011 d
b100001001000100010011 j
b100001001000100010011 2"
b100000 8
b100000 ""
b100000 %"
1!
#620
0!
#630
b1010 A
b1010 G
b1010 M
b1010 O
b1010 $"
b110 L
b1 N
b10 C
b10 I
b10 Y
b10 \
b1 ?
b1 J
b1 p
b101 @
b101 K
b101 l
b10000000 `
1(
b10 X
b10 [
b10 ^
b1 ,
b1 S
b1 a
b1 o
1-
b100000000 _
b100001101000110010011 >
b100001101000110010011 h
b100001101000110010011 z
1!
#640
0!
#650
b100101 A
b100101 G
b100101 M
b100101 O
b100101 $"
b100101 L
b101 N
b0 C
b0 I
b0 Y
b0 \
b101 ?
b101 J
b101 p
b100000 @
b100000 K
b100000 l
b1010 0
b1010 w
b1010 /"
1#
0(
b0 X
b0 [
b0 ^
b0 ,
b0 S
b0 a
b0 o
0-
b1 `
b1010 2
b1010 x
b1010 }
b10000000 _
b1010 B
b1010 P
b1010 s
b1010 {
1!
#660
0!
#670
b100000 0
b100000 w
b100000 /"
b100100 A
b100100 G
b100100 M
b100100 O
b100100 $"
b100100 L
b100 N
1v
b100 ?
b100 J
b100 p
b10 `
1$
1%
b10 )
b10 Q
b10 b
b10 ,
b10 S
b10 a
b10 o
1'
0#
b1 _
1!
#680
0!
#690
b101 N
0v
b101 ?
b101 J
b101 p
b101001 A
b101001 G
b101001 M
b101001 O
b101001 $"
b101001 L
b1000000000100001101001000010011 :
b1000000000100001101001000010011 F
b1000000000100001101001000010011 f
b1000000000100001101001000010011 i
b1010 0
b1010 w
b1010 /"
0$
0%
b0 )
b0 Q
b0 b
b0 ,
b0 S
b0 a
b0 o
0'
b100000000 `
b100100 @
b100100 K
b100100 l
b100100 ;
b100100 E
b100100 u
b101 W
b101 Z
b11 7
b11 ."
b100100 1
b100100 y
b100100 !"
b10 _
b100100 9
b100100 H
b100100 k
b100100 t
b100001101000110010011 <
b100001101000110010011 U
b100001101000110010011 d
b100001101000110010011 j
b100001101000110010011 2"
b100100 8
b100100 ""
b100100 %"
1!
#700
0!
#710
b10 A
b10 G
b10 M
b10 O
b10 $"
b110 L
b1 N
b1010 C
b1010 I
b1010 Y
b1010 \
b1 ?
b1 J
b1 p
b101 @
b101 K
b101 l
b10000000 `
1(
b10 X
b10 [
b10 ^
b1 ,
b1 S
b1 a
b1 o
1-
b100000000 _
b1000000000100001101001000010011 >
b1000000000100001101001000010011 h
b1000000000100001101001000010011 z
1!
#720
0!
#730
b101001 A
b101001 G
b101001 M
b101001 O
b101001 $"
b101001 L
b101 N
b0 C
b0 I
b0 Y
b0 \
b101 ?
b101 J
b101 p
b100100 @
b100100 K
b100100 l
b10 0
b10 w
b10 /"
1#
0(
b0 X
b0 [
b0 ^
b0 ,
b0 S
b0 a
b0 o
0-
b1 `
b10 2
b10 x
b10 }
b10000000 _
b10 B
b10 P
b10 s
b10 {
1!
#740
0!
#750
b100100 0
b100100 w
b100100 /"
b101000 A
b101000 G
b101000 M
b101000 O
b101000 $"
b101000 L
b100 N
1v
b100 ?
b100 J
b100 p
b10 `
1$
1%
b10 )
b10 Q
b10 b
b10 ,
b10 S
b10 a
b10 o
1'
0#
b1 _
1!
#760
0!
#770
b101 N
0v
b101 ?
b101 J
b101 p
b101101 A
b101101 G
b101101 M
b101101 O
b101101 $"
b101101 L
b1000001000000110110011 :
b1000001000000110110011 F
b1000001000000110110011 f
b1000001000000110110011 i
b10 0
b10 w
b10 /"
0$
0%
b0 )
b0 Q
b0 b
b0 ,
b0 S
b0 a
b0 o
0'
b100000000 `
b101000 @
b101000 K
b101000 l
b101000 ;
b101000 E
b101000 u
1V
b100 7
b100 ."
b10000000001 =
b10000000001 q
b10000000001 #"
b10000000001 4"
b10000000001 5"
b101000 1
b101000 y
b101000 !"
b10 _
b101000 9
b101000 H
b101000 k
b101000 t
b1000000000100001101001000010011 <
b1000000000100001101001000010011 U
b1000000000100001101001000010011 d
b1000000000100001101001000010011 j
b1000000000100001101001000010011 2"
b101000 8
b101000 ""
b101000 %"
1!
#780
0!
#790
b10 A
b10 G
b10 M
b10 O
b10 $"
b10000000110 L
b10000000001 N
b1011 C
b1011 I
b1011 Y
b1011 \
b10000000001 ?
b10000000001 J
b10000000001 p
b101 @
b101 K
b101 l
b10000000 `
1(
b10 X
b10 [
b10 ^
b1 ,
b1 S
b1 a
b1 o
1-
b100000000 _
b1000001000000110110011 >
b1000001000000110110011 h
b1000001000000110110011 z
1!
#800
0!
#810
b101101 A
b101101 G
b101101 M
b101101 O
b101101 $"
b101101 L
b101 N
b0 C
b0 I
b0 Y
b0 \
b101 ?
b101 J
b101 p
b101000 @
b101000 K
b101000 l
1#
0(
b0 X
b0 [
b0 ^
b0 ,
b0 S
b0 a
b0 o
0-
b1 `
b10000000 _
1!
#820
0!
#830
b101000 0
b101000 w
b101000 /"
b101100 A
b101100 G
b101100 M
b101100 O
b101100 $"
b101100 L
b100 N
1v
b100 ?
b100 J
b100 p
b10 `
1$
1%
b10 )
b10 Q
b10 b
b10 ,
b10 S
b10 a
b10 o
1'
0#
b1 _
1!
#840
0!
#850
b101 N
0v
b101 ?
b101 J
b101 p
b110001 A
b110001 G
b110001 M
b110001 O
b110001 $"
b110001 L
b1000000001000001000000110110011 :
b1000000001000001000000110110011 F
b1000000001000001000000110110011 f
b1000000001000001000000110110011 i
b1010 4
b1010 *"
b1010 1"
b10 0
b10 w
b10 /"
0$
0%
b0 )
b0 Q
b0 b
b0 ,
b0 S
b0 a
b0 o
0'
b1000000 `
b101100 @
b101100 K
b101100 l
b101100 ;
b101100 E
b101100 u
b110011 T
b110011 ]
b110011 c
0V
b0 W
b0 Z
b11 7
b11 ."
b10 .
b10 -"
b10 =
b10 q
b10 #"
b10 4"
b10 5"
b101100 1
b101100 y
b101100 !"
b10 _
b101100 9
b101100 H
b101100 k
b101100 t
b1000001000000110110011 <
b1000001000000110110011 U
b1000001000000110110011 d
b1000001000000110110011 j
b1000001000000110110011 2"
b101100 8
b101100 ""
b101100 %"
1!
#860
0!
#870
b101 @
b101 K
b101 l
b1111 A
b1111 G
b1111 M
b1111 O
b1111 $"
b1111 L
b1010 N
b10000000 `
1(
b1 X
b1 [
b1 ^
1-
b1010 ?
b1010 J
b1010 p
b1000000 _
b1000000001000001000000110110011 >
b1000000001000001000000110110011 h
b1000000001000001000000110110011 z
b1010 3
b1010 D
b1010 r
b1010 +"
1!
#880
0!
#890
b110110 A
b110110 G
b110110 M
b110110 O
b110110 $"
b110110 L
b101100 @
b101100 K
b101100 l
b1111 0
b1111 w
b1111 /"
1#
0(
b0 X
b0 [
b0 ^
0-
b1 `
b1111 2
b1111 x
b1111 }
b10000000 _
b1111 B
b1111 P
b1111 s
b1111 {
1!
#900
0!
#910
b101100 0
b101100 w
b101100 /"
b110000 A
b110000 G
b110000 M
b110000 O
b110000 $"
b110000 L
b100 N
1v
b100 ?
b100 J
b100 p
b10 `
1$
1%
b10 )
b10 Q
b10 b
b10 ,
b10 S
b10 a
b10 o
1'
0#
b1 _
1!
#920
0!
