multi_cycle/riscv_mul.vcd
$date
	Fri Dec 19 18:11:35 2025
$end
$version
	Icarus Verilog
$end
$timescale
	1s
$end
$scope module testbench $end
$var reg 1 ! clock $end
$var reg 1 " rst $end
$scope module dut $end
$var wire 1 ! clk $end
$var wire 1 " rst $end
$var wire 1 # we_rf $end
$var wire 1 $ we_pc_plus_4 $end
$var wire 1 % we_pc $end
$var wire 1 & we_original_pc $end
$var wire 1 ' we_mem $end
$var wire 1 ( we_ir $end
$var wire 1 ) we_alu_reg $end
$var wire 2 * sel_result [1:0] $end
$var wire 1 + sel_original_pc $end
$var wire 1 , sel_mem_addr $end
$var wire 3 - sel_ext [2:0] $end
$var wire 2 . sel_alu_src_b [1:0] $end
$var wire 1 / sel_alu_src_a $end
$var wire 5 0 rs2 [4:0] $end
$var wire 5 1 rs1 [4:0] $end
$var wire 32 2 rf_write_data [31:0] $end
$var wire 32 3 result_mux1_out [31:0] $end
$var wire 32 4 result_mux0_out [31:0] $end
$var wire 32 5 rd2_reg_out [31:0] $end
$var wire 32 6 rd2 [31:0] $end
$var wire 32 7 rd1_reg_out [31:0] $end
$var wire 32 8 rd1 [31:0] $end
$var wire 5 9 rd [4:0] $end
$var wire 32 : pc_plus_4 [31:0] $end
$var wire 32 ; pc_for_alu [31:0] $end
$var wire 32 < pc [31:0] $end
$var wire 32 = original_pc [31:0] $end
$var wire 32 > mem_read_data [31:0] $end
$var wire 32 ? mem_address [31:0] $end
$var wire 32 @ instruction [31:0] $end
$var wire 32 A imm_extended [31:0] $end
$var wire 32 B data_reg_out [31:0] $end
$var wire 32 C alu_src_b [31:0] $end
$var wire 32 D alu_src_a [31:0] $end
$var wire 32 E alu_result [31:0] $end
$var wire 32 F alu_reg_out [31:0] $end
$var wire 4 G alu_control [3:0] $end
$scope module MEM $end
$var wire 1 ! clock $end
$var wire 1 ' write_enable $end
$var wire 32 H write_data [31:0] $end
$var wire 32 I address [31:0] $end
$var reg 32 J read_data [31:0] $end
$upscope $end
$scope module PC_reg $end
$var wire 1 ! clock $end
$var wire 1 " reset $end
$var wire 1 % write_enable $end
$var wire 32 K data_in [31:0] $end
$var reg 32 L data_out [31:0] $end
$upscope $end
$scope module alu $end
$var wire 4 M alu_control [3:0] $end
$var wire 32 N RD2 [31:0] $end
$var wire 32 O RD1 [31:0] $end
$var reg 32 P addition_result [31:0] $end
$var reg 32 Q alu_result [31:0] $end
$var reg 32 R shifted_operand_b [31:0] $end
$upscope $end
$scope module alu_reg $end
$var wire 1 ! clock $end
$var wire 32 S data_in [31:0] $end
$var wire 1 " reset $end
$var wire 1 ) write_enable $end
$var reg 32 T data_out [31:0] $end
$upscope $end
$scope module controller $end
$var wire 1 ! clk $end
$var wire 1 " rst $end
$var wire 1 # we_rf $end
$var wire 1 $ we_pc_plus_4 $end
$var wire 1 % we_pc $end
$var wire 1 & we_original_pc $end
$var wire 1 ' we_mem $end
$var wire 1 ( we_ir $end
$var wire 1 ) we_alu_reg $end
$var wire 2 U sel_result [1:0] $end
$var wire 1 + sel_original_pc $end
$var wire 1 , sel_mem_addr $end
$var wire 3 V sel_ext [2:0] $end
$var wire 2 W sel_alu_src_b [1:0] $end
$var wire 1 / sel_alu_src_a $end
$var wire 7 X opcode [6:0] $end
$var wire 32 Y instruction [31:0] $end
$var wire 1 Z funct7_bit5 $end
$var wire 3 [ funct3 [2:0] $end
$var wire 2 \ alu_op [1:0] $end
$var wire 4 ] alu_control [3:0] $end
$scope module alu_decoder $end
$var wire 3 ^ funct3 [2:0] $end
$var wire 1 Z funct7_bit5 $end
$var wire 2 _ alu_op [1:0] $end
$var reg 4 ` alu_control [3:0] $end
$upscope $end
$scope module fsm $end
$var wire 1 ! clk $end
$var wire 1 " rst $end
$var wire 7 a opcode [6:0] $end
$var reg 2 b alu_op [1:0] $end
$var reg 10 c current_state [9:0] $end
$var reg 10 d next_state [9:0] $end
$var reg 1 / sel_alu_src_a $end
$var reg 2 e sel_alu_src_b [1:0] $end
$var reg 1 , sel_mem_addr $end
$var reg 1 + sel_original_pc $end
$var reg 2 f sel_result [1:0] $end
$var reg 1 ) we_alu_reg $end
$var reg 1 ( we_ir $end
$var reg 1 ' we_mem $end
$var reg 1 & we_original_pc $end
$var reg 1 % we_pc $end
$var reg 1 $ we_pc_plus_4 $end
$var reg 1 # we_rf $end
$upscope $end
$scope module instr_decoder $end
$var wire 7 g opcode [6:0] $end
$var wire 32 h instruction [31:0] $end
$var reg 3 i sel_ext [2:0] $end
$upscope $end
$upscope $end
$scope module data_reg $end
$var wire 1 ! clock $end
$var wire 32 j data_in [31:0] $end
$var wire 1 " reset $end
$var wire 1 k write_enable $end
$var reg 32 l data_out [31:0] $end
$upscope $end
$scope module instr_reg $end
$var wire 1 ! clock $end
$var wire 32 m data_in [31:0] $end
$var wire 1 " reset $end
$var wire 1 ( write_enable $end
$var reg 32 n data_out [31:0] $end
$upscope $end
$scope module mux_alu_src_a $end
$var wire 1 / sel $end
$var wire 32 o out [31:0] $end
$var wire 32 p input2 [31:0] $end
$var wire 32 q input1 [31:0] $end
$upscope $end
$scope module mux_alu_src_b $end
$var wire 32 r input2 [31:0] $end
$var wire 2 s sel [1:0] $end
$var wire 32 t out [31:0] $end
$var wire 32 u input1 [31:0] $end
$var wire 32 v input0 [31:0] $end
$upscope $end
$scope module mux_mem_addr $end
$var wire 32 w input1 [31:0] $end
$var wire 32 x input2 [31:0] $end
$var wire 1 , sel $end
$var wire 32 y out [31:0] $end
$upscope $end
$scope module mux_pc_select $end
$var wire 32 z input2 [31:0] $end
$var wire 1 + sel $end
$var wire 32 { out [31:0] $end
$var wire 32 | input1 [31:0] $end
$upscope $end
$scope module mux_result $end
$var wire 1 } sel $end
$var wire 32 ~ out [31:0] $end
$var wire 32 !" input2 [31:0] $end
$var wire 32 "" input1 [31:0] $end
$upscope $end
$scope module mux_result_0 $end
$var wire 32 #" input1 [31:0] $end
$var wire 32 $" input2 [31:0] $end
$var wire 1 %" sel $end
$var wire 32 &" out [31:0] $end
$upscope $end
$scope module mux_result_1 $end
$var wire 1 '" sel $end
$var wire 32 (" out [31:0] $end
$var wire 32 )" input2 [31:0] $end
$var wire 32 *" input1 [31:0] $end
$upscope $end
$scope module original_pc_reg $end
$var wire 1 ! clock $end
$var wire 32 +" data_in [31:0] $end
$var wire 1 " reset $end
$var wire 1 & write_enable $end
$var reg 32 ," data_out [31:0] $end
$upscope $end
$scope module pc_plus_4_reg $end
$var wire 1 ! clock $end
$var wire 32 -" data_in [31:0] $end
$var wire 1 " reset $end
$var wire 1 $ write_enable $end
$var reg 32 ." data_out [31:0] $end
$upscope $end
$scope module rd1_reg $end
$var wire 1 ! clock $end
$var wire 1 " reset $end
$var wire 1 /" write_enable $end
$var wire 32 0" data_in [31:0] $end
$var reg 32 1" data_out [31:0] $end
$upscope $end
$scope module rd2_reg $end
$var wire 1 ! clock $end
$var wire 1 " reset $end
$var wire 1 2" write_enable $end
$var wire 32 3" data_in [31:0] $end
$var reg 32 4" data_out [31:0] $end
$upscope $end
$scope module rf $end
$var wire 1 ! clock $end
$var wire 5 5" read_address_1 [4:0] $end
$var wire 5 6" read_address_2 [4:0] $end
$var wire 5 7" write_address [4:0] $end
$var wire 32 8" write_data [31:0] $end
$var wire 1 # write_enable $end
$var reg 32 9" read_data_1 [31:0] $end
$var reg 32 :" read_data_2 [31:0] $end
$upscope $end
$scope module sign_ext $end
$var wire 32 ;" instruction [31:0] $end
$var wire 3 <" sel_ext [2:0] $end
$var reg 32 =" imm_extended [31:0] $end
$var reg 12 >" immediate_12bit [11:0] $end
$var reg 13 ?" immediate_13bit [12:0] $end
$var reg 20 @" immediate_20bit [19:0] $end
$var reg 21 A" immediate_21bit [20:0] $end
$var reg 1 B" sign_bit $end
$upscope $end
$upscope $end
$upscope $end
$enddefinitions $end
#0
$dumpvars
0B"
bx A"
bx @"
bx ?"
b0 >"
b0 ="
b0 <"
b0 ;"
b0 :"
b0 9"
b0 8"
b0 7"
b0 6"
b0 5"
b0 4"
b0 3"
12"
b0 1"
b0 0"
1/"
b0 ."
b0 -"
b0 ,"
b0 +"
b0 *"
b0 )"
b0 ("
0'"
b0 &"
0%"
b0 $"
b0 #"
b0 ""
b0 !"
b0 ~
0}
b0 |
b0 {
b0 z
b0 y
b0 x
b0 w
b0 v
b0 u
b0 t
b0 s
b100 r
b0 q
b0 p
b0 o
b0 n
b10100000000000010010011 m
b0 l
1k
b10100000000000010010011 j
b0 i
b0 h
b0 g
b0 f
b0 e
b1 d
bx c
b0 b
b0 a
b0 `
b0 _
b0 ^
b0 ]
b0 \
b0 [
0Z
b0 Y
b0 X
b0 W
b0 V
b0 U
b0 T
b0 S
b0 R
b0 Q
b0 P
b0 O
b0 N
b0 M
b0 L
b0 K
b10100000000000010010011 J
b0 I
b0 H
b0 G
b0 F
b0 E
b0 D
b0 C
b0 B
b0 A
b0 @
b0 ?
b10100000000000010010011 >
b0 =
b0 <
b0 ;
b0 :
b0 9
b0 8
b0 7
b0 6
b0 5
b0 4
b0 3
b0 2
b0 1
b0 0
0/
b0 .
b0 -
0,
0+
b0 *
0)
0(
0'
0&
0%
0$
0#
1"
0!
$end
#20
0"
#30
b100 E
b100 K
b100 Q
b100 S
b100 -"
b100 P
b100 R
1}
b100 C
b100 N
b100 t
b10 d
1&
1$
1%
b10 *
b10 U
b10 f
b10 .
b10 W
b10 e
b10 s
1(
b1 c
b10100000000000010010011 B
b10100000000000010010011 l
b10100000000000010010011 #"
1!
#40
0!
#50
b0 R
0}
b0 C
b0 N
b0 t
b101000000000000100010011 >
b101000000000000100010011 J
b101000000000000100010011 j
b101000000000000100010011 m
b100 D
b100 O
b100 o
bx 6
bx 3"
bx :"
b0 2
b0 ~
b0 8"
0&
0$
0%
b0 *
b0 U
b0 f
b0 .
b0 W
b0 e
b0 s
0(
b100000000 d
b100 ?
b100 I
b100 y
b100 ;
b100 p
b100 {
b10011 X
b10011 a
b10011 g
b1 9
b1 7"
b101 0
b101 6"
b101 A
b101 u
b101 *"
b101 ="
b101 >"
b100 3
b100 ""
b100 ("
b10 c
b100 <
b100 L
b100 x
b100 z
b100 +"
b10100000000000010010011 @
b10100000000000010010011 Y
b10100000000000010010011 h
b10100000000000010010011 n
b10100000000000010010011 ;"
b100 :
b100 )"
b100 ."
1!
#60
0!
#70
b0 D
b0 O
b0 o
b101 E
b101 K
b101 Q
b101 S
b101 -"
b101 P
b101 R
b10000000 d
1)
b10 \
b10 _
b10 b
b1 .
b1 W
b1 e
b1 s
1/
b101 C
b101 N
b101 t
b100000000 c
b101000000000000100010011 B
b101000000000000100010011 l
b101000000000000100010011 #"
bx 5
bx H
bx v
bx 4"
1!
#80
0!
#90
bx E
bx K
bx Q
bx S
bx -"
bx P
bx R
bx C
bx N
bx t
b100 D
b100 O
b100 o
b101 2
b101 ~
b101 8"
1#
0)
b0 \
b0 _
b0 b
b0 .
b0 W
b0 e
b0 s
0/
b1 d
b101 4
b101 !"
b101 &"
b10000000 c
b101 F
b101 T
b101 w
b101 $"
1!
#100
0!
#110
b100 2
b100 ~
b100 8"
b1000 E
b1000 K
b1000 Q
b1000 S
b1000 -"
b1000 P
b100 R
1}
b100 C
b100 N
b100 t
b10 d
1&
1$
1%
b10 *
b10 U
b10 f
b10 .
b10 W
b10 e
b10 s
1(
0#
b1 c
1!
#120
0!
#130
bx E
bx K
bx Q
bx S
bx -"
bx P
bx R
0}
bx C
bx N
bx t
b100001010000110010011 >
b100001010000110010011 J
b100001010000110010011 j
b100001010000110010011 m
b1000 D
b1000 O
b1000 o
b101 2
b101 ~
b101 8"
0&
0$
0%
b0 *
b0 U
b0 f
b0 .
b0 W
b0 e
b0 s
0(
b100000000 d
b1000 ?
b1000 I
b1000 y
b1000 ;
b1000 p
b1000 {
b10 9
b10 7"
b1010 0
b1010 6"
b1010 A
b1010 u
b1010 *"
b1010 ="
b1010 >"
b1000 3
b1000 ""
b1000 ("
b10 c
b1000 <
b1000 L
b1000 x
b1000 z
b1000 +"
b100 =
b100 |
b100 ,"
b101000000000000100010011 @
b101000000000000100010011 Y
b101000000000000100010011 h
b101000000000000100010011 n
b101000000000000100010011 ;"
b1000 :
b1000 )"
b1000 ."
1!
#140
0!
#150
b1010 E
b1010 K
b1010 Q
b1010 S
b1010 -"
b1010 P
b1010 R
b1010 C
b1010 N
b1010 t
b0 D
b0 O
b0 o
b10000000 d
1)
b10 \
b10 _
b10 b
b1 .
b1 W
b1 e
b1 s
1/
b100000000 c
b100001010000110010011 B
b100001010000110010011 l
b100001010000110010011 #"
1!
#160
0!
#170
bx E
bx K
bx Q
bx S
bx -"
bx P
bx R
bx C
bx N
bx t
b1000 D
b1000 O
b1000 o
b1010 2
b1010 ~
b1010 8"
1#
0)
b0 \
b0 _
b0 b
b0 .
b0 W
b0 e
b0 s
0/
b1 d
b1010 4
b1010 !"
b1010 &"
b10000000 c
b1010 F
b1010 T
b1010 w
b1010 $"
1!
#180
0!
#190
b1000 2
b1000 ~
b1000 8"
b1100 E
b1100 K
b1100 Q
b1100 S
b1100 -"
b1100 P
b100 R
1}
b100 C
b100 N
b100 t
b10 d
1&
1$
1%
b10 *
b10 U
b10 f
b10 .
b10 W
b10 e
b10 s
1(
0#
b1 c
1!
#200
0!
#210
bx E
bx K
bx Q
bx S
bx -"
bx P
bx R
0}
bx C
bx N
bx t
b100001011001000010011 >
b100001011001000010011 J
b100001011001000010011 j
b100001011001000010011 m
b1100 D
b1100 O
b1100 o
b101 6
b101 3"
b101 :"
b101 8
b101 0"
b101 9"
b1010 2
b1010 ~
b1010 8"
0&
0$
0%
b0 *
b0 U
b0 f
b0 .
b0 W
b0 e
b0 s
0(
b100000000 d
b1100 ?
b1100 I
b1100 y
b1100 ;
b1100 p
b1100 {
b10 [
b10 ^
b11 9
b11 7"
b1 0
b1 6"
b1 1
b1 5"
b1 A
b1 u
b1 *"
b1 ="
b1 >"
b1100 3
b1100 ""
b1100 ("
b10 c
b1100 <
b1100 L
b1100 x
b1100 z
b1100 +"
b1000 =
b1000 |
b1000 ,"
b100001010000110010011 @
b100001010000110010011 Y
b100001010000110010011 h
b100001010000110010011 n
b100001010000110010011 ;"
b1100 :
b1100 )"
b1100 ."
1!
#220
0!
#230
b100 G
b100 M
b100 ]
b100 `
b101 D
b101 O
b101 o
b0 E
b0 K
b0 Q
b0 S
b0 -"
b100 P
b11111111111111111111111111111111 R
b10000000 d
1)
b10 \
b10 _
b10 b
b1 .
b1 W
b1 e
b1 s
1/
b1 C
b1 N
b1 t
b100000000 c
b100001011001000010011 B
b100001011001000010011 l
b100001011001000010011 #"
b101 5
b101 H
b101 v
b101 4"
b101 7
b101 q
b101 1"
1!
#240
0!
#250
b10001 E
b10001 K
b10001 Q
b10001 S
b10001 -"
b10001 P
b101 R
b0 G
b0 M
b0 ]
b0 `
b101 C
b101 N
b101 t
b1100 D
b1100 O
b1100 o
b0 2
b0 ~
b0 8"
1#
0)
b0 \
b0 _
b0 b
b0 .
b0 W
b0 e
b0 s
0/
b1 d
b0 4
b0 !"
b0 &"
b10000000 c
b0 F
b0 T
b0 w
b0 $"
1!
#260
0!
#270
b1100 2
b1100 ~
b1100 8"
b10000 E
b10000 K
b10000 Q
b10000 S
b10000 -"
b10000 P
b100 R
1}
b100 C
b100 N
b100 t
b10 d
1&
1$
1%
b10 *
b10 U
b10 f
b10 .
b10 W
b10 e
b10 s
1(
0#
b1 c
1!
#280
0!
#290
b10101 E
b10101 K
b10101 Q
b10101 S
b10101 -"
b10101 P
b101 R
0}
b101 C
b101 N
b101 t
b100001100001010010011 >
b100001100001010010011 J
b100001100001010010011 j
b100001100001010010011 m
b10000 D
b10000 O
b10000 o
b0 2
b0 ~
b0 8"
0&
0$
0%
b0 *
b0 U
b0 f
b0 .
b0 W
b0 e
b0 s
0(
b100000000 d
b10000 ?
b10000 I
b10000 y
b10000 ;
b10000 p
b10000 {
b11 [
b11 ^
b100 9
b100 7"
b10000 3
b10000 ""
b10000 ("
b10 c
b10000 <
b10000 L
b10000 x
b10000 z
b10000 +"
b1100 =
b1100 |
b1100 ,"
b100001011001000010011 @
b100001011001000010011 Y
b100001011001000010011 h
b100001011001000010011 n
b100001011001000010011 ;"
b10000 :
b10000 )"
b10000 ."
1!
#300
0!
#310
b0 E
b0 K
b0 Q
b0 S
b0 -"
b110 P
b1 R
b110 G
b110 M
b110 ]
b110 `
b1 C
b1 N
b1 t
b101 D
b101 O
b101 o
b10000000 d
1)
b10 \
b10 _
b10 b
b1 .
b1 W
b1 e
b1 s
1/
b100000000 c
b100001100001010010011 B
b100001100001010010011 l
b100001100001010010011 #"
1!
#320
0!
#330
b10101 E
b10101 K
b10101 Q
b10101 S
b10101 -"
b10101 P
b101 R
b0 G
b0 M
b0 ]
b0 `
b101 C
b101 N
b101 t
b10000 D
b10000 O
b10000 o
1#
0)
b0 \
b0 _
b0 b
b0 .
b0 W
b0 e
b0 s
0/
b1 d
b10000000 c
1!
#340
0!
#350
b10000 2
b10000 ~
b10000 8"
b10100 E
b10100 K
b10100 Q
b10100 S
b10100 -"
b10100 P
b100 R
1}
b100 C
b100 N
b100 t
b10 d
1&
1$
1%
b10 *
b10 U
b10 f
b10 .
b10 W
b10 e
b10 s
1(
0#
b1 c
1!
#360
0!
#370
b11001 E
b11001 K
b11001 Q
b11001 S
b11001 -"
b11001 P
b101 R
0}
b101 C
b101 N
b101 t
b100001110001100010011 >
b100001110001100010011 J
b100001110001100010011 j
b100001110001100010011 m
b10100 D
b10100 O
b10100 o
b0 2
b0 ~
b0 8"
0&
0$
0%
b0 *
b0 U
b0 f
b0 .
b0 W
b0 e
b0 s
0(
b100000000 d
b10100 ?
b10100 I
b10100 y
b10100 ;
b10100 p
b10100 {
b100 [
b100 ^
b101 9
b101 7"
b10100 3
b10100 ""
b10100 ("
b10 c
b10100 <
b10100 L
b10100 x
b10100 z
b10100 +"
b10000 =
b10000 |
b10000 ,"
b100001100001010010011 @
b100001100001010010011 Y
b100001100001010010011 h
b100001100001010010011 n
b100001100001010010011 ;"
b10100 :
b10100 )"
b10100 ."
1!
#380
0!
#390
b100 E
b100 K
b100 Q
b100 S
b100 -"
b110 P
b1 R
b1000 G
b1000 M
b1000 ]
b1000 `
b1 C
b1 N
b1 t
b101 D
b101 O
b101 o
b10000000 d
1)
b10 \
b10 _
b10 b
b1 .
b1 W
b1 e
b1 s
1/
b100000000 c
b100001110001100010011 B
b100001110001100010011 l
b100001110001100010011 #"
1!
#400
0!
#410
b11001 E
b11001 K
b11001 Q
b11001 S
b11001 -"
b11001 P
b101 R
b0 G
b0 M
b0 ]
b0 `
b101 C
b101 N
b101 t
b10100 D
b10100 O
b10100 o
b100 2
b100 ~
b100 8"
1#
0)
b0 \
b0 _
b0 b
b0 .
b0 W
b0 e
b0 s
0/
b1 d
b100 4
b100 !"
b100 &"
b10000000 c
b100 F
b100 T
b100 w
b100 $"
1!
#420
0!
#430
b10100 2
b10100 ~
b10100 8"
b11000 E
b11000 K
b11000 Q
b11000 S
b11000 -"
b11000 P
b100 R
1}
b100 C
b100 N
b100 t
b10 d
1&
1$
1%
b10 *
b10 U
b10 f
b10 .
b10 W
b10 e
b10 s
1(
0#
b1 c
1!
#440
0!
#450
b11101 E
b11101 K
b11101 Q
b11101 S
b11101 -"
b11101 P
b101 R
0}
b101 C
b101 N
b101 t
b100001111001110010011 >
b100001111001110010011 J
b100001111001110010011 j
b100001111001110010011 m
b11000 D
b11000 O
b11000 o
b100 2
b100 ~
b100 8"
0&
0$
0%
b0 *
b0 U
b0 f
b0 .
b0 W
b0 e
b0 s
0(
b100000000 d
b11000 ?
b11000 I
b11000 y
b11000 ;
b11000 p
b11000 {
b110 [
b110 ^
b110 9
b110 7"
b11000 3
b11000 ""
b11000 ("
b10 c
b11000 <
b11000 L
b11000 x
b11000 z
b11000 +"
b10100 =
b10100 |
b10100 ,"
b100001110001100010011 @
b100001110001100010011 Y
b100001110001100010011 h
b100001110001100010011 n
b100001110001100010011 ;"
b11000 :
b11000 )"
b11000 ."
1!
#460
0!
#470
b101 E
b101 K
b101 Q
b101 S
b101 -"
b110 P
b1 R
b1100 G
b1100 M
b1100 ]
b1100 `
b1 C
b1 N
b1 t
b101 D
b101 O
b101 o
b10000000 d
1)
b10 \
b10 _
b10 b
b1 .
b1 W
b1 e
b1 s
1/
b100000000 c
b100001111001110010011 B
b100001111001110010011 l
b100001111001110010011 #"
1!
#480
0!
#490
b11101 E
b11101 K
b11101 Q
b11101 S
b11101 -"
b11101 P
b101 R
b0 G
b0 M
b0 ]
b0 `
b101 C
b101 N
b101 t
b11000 D
b11000 O
b11000 o
b101 2
b101 ~
b101 8"
1#
0)
b0 \
b0 _
b0 b
b0 .
b0 W
b0 e
b0 s
0/
b1 d
b101 4
b101 !"
b101 &"
b10000000 c
b101 F
b101 T
b101 w
b101 $"
1!
#500
0!
#510
b11000 2
b11000 ~
b11000 8"
b11100 E
b11100 K
b11100 Q
b11100 S
b11100 -"
b11100 P
b100 R
1}
b100 C
b100 N
b100 t
b10 d
1&
1$
1%
b10 *
b10 U
b10 f
b10 .
b10 W
b10 e
b10 s
1(
0#
b1 c
1!
#520
0!
#530
b100001 E
b100001 K
b100001 Q
b100001 S
b100001 -"
b100001 P
b101 R
0}
b101 C
b101 N
b101 t
b100001001000100010011 >
b100001001000100010011 J
b100001001000100010011 j
b100001001000100010011 m
b11100 D
b11100 O
b11100 o
b101 2
b101 ~
b101 8"
0&
0$
0%
b0 *
b0 U
b0 f
b0 .
b0 W
b0 e
b0 s
0(
b100000000 d
b11100 ?
b11100 I
b11100 y
b11100 ;
b11100 p
b11100 {
b111 [
b111 ^
b111 9
b111 7"
b11100 3
b11100 ""
b11100 ("
b10 c
b11100 <
b11100 L
b11100 x
b11100 z
b11100 +"
b11000 =
b11000 |
b11000 ,"
b100001111001110010011 @
b100001111001110010011 Y
b100001111001110010011 h
b100001111001110010011 n
b100001111001110010011 ;"
b11100 :
b11100 )"
b11100 ."
1!
#540
0!
#550
b1 E
b1 K
b1 Q
b1 S
b1 -"
b110 P
b1 R
b1110 G
b1110 M
b1110 ]
b1110 `
b1 C
b1 N
b1 t
b101 D
b101 O
b101 o
b10000000 d
1)
b10 \
b10 _
b10 b
b1 .
b1 W
b1 e
b1 s
1/
b100000000 c
b100001001000100010011 B
b100001001000100010011 l
b100001001000100010011 #"
1!
#560
0!
#570
b100001 E
b100001 K
b100001 Q
b100001 S
b100001 -"
b100001 P
b101 R
b0 G
b0 M
b0 ]
b0 `
b101 C
b101 N
b101 t
b11100 D
b11100 O
b11100 o
b1 2
b1 ~
b1 8"
1#
0)
b0 \
b0 _
b0 b
b0 .
b0 W
b0 e
b0 s
0/
b1 d
b1 4
b1 !"
b1 &"
b10000000 c
b1 F
b1 T
b1 w
b1 $"
1!
#580
0!
#590
b11100 2
b11100 ~
b11100 8"
b100000 E
b100000 K
b100000 Q
b100000 S
b100000 -"
b100000 P
b100 R
1}
b100 C
b100 N
b100 t
b10 d
1&
1$
1%
b10 *
b10 U
b10 f
b10 .
b10 W
b10 e
b10 s
1(
0#
b1 c
1!
#600
0!
#610
b100101 E
b100101 K
b100101 Q
b100101 S
b100101 -"
b100101 P
b101 R
0}
b101 C
b101 N
b101 t
b100001101000110010011 >
b100001101000110010011 J
b100001101000110010011 j
b100001101000110010011 m
b100000 D
b100000 O
b100000 o
b1 2
b1 ~
b1 8"
0&
0$
0%
b0 *
b0 U
b0 f
b0 .
b0 W
b0 e
b0 s
0(
b100000000 d
b100000 ?
b100000 I
b100000 y
b100000 ;
b100000 p
b100000 {
b1 [
b1 ^
b10 9
b10 7"
b100000 3
b100000 ""
b100000 ("
b10 c
b100000 <
b100000 L
b100000 x
b100000 z
b100000 +"
b11100 =
b11100 |
b11100 ,"
b100001001000100010011 @
b100001001000100010011 Y
b100001001000100010011 h
b100001001000100010011 n
b100001001000100010011 ;"
b100000 :
b100000 )"
b100000 ."
1!
#620
0!
#630
b1010 E
b1010 K
b1010 Q
b1010 S
b1010 -"
b110 P
b1 R
b10 G
b10 M
b10 ]
b10 `
b1 C
b1 N
b1 t
b101 D
b101 O
b101 o
b10000000 d
1)
b10 \
b10 _
b10 b
b1 .
b1 W
b1 e
b1 s
1/
b100000000 c
b100001101000110010011 B
b100001101000110010011 l
b100001101000110010011 #"
1!
#640
0!
#650
b100101 E
b100101 K
b100101 Q
b100101 S
b100101 -"
b100101 P
b101 R
b0 G
b0 M
b0 ]
b0 `
b101 C
b101 N
b101 t
b100000 D
b100000 O
b100000 o
b1010 2
b1010 ~
b1010 8"
1#
0)
b0 \
b0 _
b0 b
b0 .
b0 W
b0 e
b0 s
0/
b1 d
b1010 4
b1010 !"
b1010 &"
b10000000 c
b1010 F
b1010 T
b1010 w
b1010 $"
1!
#660
0!
#670
b100000 2
b100000 ~
b100000 8"
b100100 E
b100100 K
b100100 Q
b100100 S
b100100 -"
b100100 P
b100 R
1}
b100 C
b100 N
b100 t
b10 d
1&
1$
1%
b10 *
b10 U
b10 f
b10 .
b10 W
b10 e
b10 s
1(
0#
b1 c
1!
#680
0!
#690
b101001 E
b101001 K
b101001 Q
b101001 S
b101001 -"
b101001 P
b101 R
0}
b101 C
b101 N
b101 t
b1000000000100001101001000010011 >
b1000000000100001101001000010011 J
b1000000000100001101001000010011 j
b1000000000100001101001000010011 m
b100100 D
b100100 O
b100100 o
b1010 2
b1010 ~
b1010 8"
0&
0$
0%
b0 *
b0 U
b0 f
b0 .
b0 W
b0 e
b0 s
0(
b100000000 d
b100100 ?
b100100 I
b100100 y
b100100 ;
b100100 p
b100100 {
b101 [
b101 ^
b11 9
b11 7"
b100100 3
b100100 ""
b100100 ("
b10 c
b100100 <
b100100 L
b100100 x
b100100 z
b100100 +"
b100000 =
b100000 |
b100000 ,"
b100001101000110010011 @
b100001101000110010011 Y
b100001101000110010011 h
b100001101000110010011 n
b100001101000110010011 ;"
b100100 :
b100100 )"
b100100 ."
1!
#700
0!
#710
b10 E
b10 K
b10 Q
b10 S
b10 -"
b110 P
b1 R
b1010 G
b1010 M
b1010 ]
b1010 `
b1 C
b1 N
b1 t
b101 D
b101 O
b101 o
b10000000 d
1)
b10 \
b10 _
b10 b
b1 .
b1 W
b1 e
b1 s
1/
b100000000 c
b1000000000100001101001000010011 B
b1000000000100001101001000010011 l
b1000000000100001101001000010011 #"
1!
#720
0!
#730
b101001 E
b101001 K
b101001 Q
b101001 S
b101001 -"
b101001 P
b101 R
b0 G
b0 M
b0 ]
b0 `
b101 C
b101 N
b101 t
b100100 D
b100100 O
b100100 o
b10 2
b10 ~
b10 8"
1#
0)
b0 \
b0 _
b0 b
b0 .
b0 W
b0 e
b0 s
0/
b1 d
b10 4
b10 !"
b10 &"
b10000000 c
b10 F
b10 T
b10 w
b10 $"
1!
#740
0!
#750
b100100 2
b100100 ~
b100100 8"
b101000 E
b101000 K
b101000 Q
b101000 S
b101000 -"
b101000 P
b100 R
1}
b100 C
b100 N
b100 t
b10 d
1&
1$
1%
b10 *
b10 U
b10 f
b10 .
b10 W
b10 e
b10 s
1(
0#
b1 c
1!
#760
0!
#770
b101101 E
b101101 K
b101101 Q
b101101 S
b101101 -"
b101101 P
b101 R
0}
b101 C
b101 N
b101 t
b1000001000000110110011 >
b1000001000000110110011 J
b1000001000000110110011 j
b1000001000000110110011 m
b101000 D
b101000 O
b101000 o
b10 2
b10 ~
b10 8"
0&
0$
0%
b0 *
b0 U
b0 f
b0 .
b0 W
b0 e
b0 s
0(
b100000000 d
b101000 ?
b101000 I
b101000 y
b101000 ;
b101000 p
b101000 {
1Z
b100 9
b100 7"
b10000000001 A
b10000000001 u
b10000000001 *"
b10000000001 ="
b10000000001 >"
b101000 3
b101000 ""
b101000 ("
b10 c
b101000 <
b101000 L
b101000 x
b101000 z
b101000 +"
b100100 =
b100100 |
b100100 ,"
b1000000000100001101001000010011 @
b1000000000100001101001000010011 Y
b1000000000100001101001000010011 h
b1000000000100001101001000010011 n
b1000000000100001101001000010011 ;"
b101000 :
b101000 )"
b101000 ."
1!
#780
0!
#790
b10 E
b10 K
b10 Q
b10 S
b10 -"
b10000000110 P
b10000000001 R
b1011 G
b1011 M
b1011 ]
b1011 `
b10000000001 C
b10000000001 N
b10000000001 t
b101 D
b101 O
b101 o
b10000000 d
1)
b10 \
b10 _
b10 b
b1 .
b1 W
b1 e
b1 s
1/
b100000000 c
b1000001000000110110011 B
b1000001000000110110011 l
b1000001000000110110011 #"
1!
#800
0!
#810
b101101 E
b101101 K
b101101 Q
b101101 S
b101101 -"
b101101 P
b101 R
b0 G
b0 M
b0 ]
b0 `
b101 C
b101 N
b101 t
b101000 D
b101000 O
b101000 o
1#
0)
b0 \
b0 _
b0 b
b0 .
b0 W
b0 e
b0 s
0/
b1 d
b10000000 c
1!
#820
0!
#830
b101000 2
b101000 ~
b101000 8"
b101100 E
b101100 K
b101100 Q
b101100 S
b101100 -"
b101100 P
b100 R
1}
b100 C
b100 N
b100 t
b10 d
1&
1$
1%
b10 *
b10 U
b10 f
b10 .
b10 W
b10 e
b10 s
1(
0#
b1 c
1!
#840
0!
