single_cycle/riscv_processor.vcd
$date
	Fri Dec  5 09:45:56 2025
$end
$version
	Icarus Verilog
$end
$timescale
	1s
$end
$scope module testbench $end
$var reg 1 ! clock $end
$scope module dut $end
$var wire 1 " branch_taken $end
$var wire 1 ! clock $end
$var wire 2 # sel_result [1:0] $end
$var wire 1 $ sel_pc_src $end
$var wire 3 % sel_ext [2:0] $end
$var wire 1 & sel_alu_src_b $end
$var wire 5 ' rs2 [4:0] $end
$var wire 5 ( rs1 [4:0] $end
$var wire 32 ) rf_write_data [31:0] $end
$var wire 1 * rf_we $end
$var wire 32 + rd2 [31:0] $end
$var wire 32 , rd1 [31:0] $end
$var wire 5 - rd [4:0] $end
$var wire 32 . pc_plus_imm [31:0] $end
$var wire 32 / pc_plus_4 [31:0] $end
$var wire 32 0 pc [31:0] $end
$var wire 32 1 next_pc [31:0] $end
$var wire 32 2 mux_result_pc_imm [31:0] $end
$var wire 32 3 mux_result_intermediate [31:0] $end
$var wire 32 4 instruction [31:0] $end
$var wire 32 5 imm_extended [31:0] $end
$var wire 1 6 dmem_we $end
$var wire 32 7 dmem_read_data [31:0] $end
$var wire 1 8 branch $end
$var wire 32 9 alu_result [31:0] $end
$var wire 32 : alu_operand_b [31:0] $end
$var wire 4 ; alu_control [3:0] $end
$scope module add_pc_imm $end
$var wire 32 < pc_plus_imm [31:0] $end
$var wire 32 = pc [31:0] $end
$var wire 32 > imm_extended [31:0] $end
$upscope $end
$scope module alu $end
$var wire 4 ? alu_control [3:0] $end
$var wire 32 @ RD2 [31:0] $end
$var wire 32 A RD1 [31:0] $end
$var reg 32 B addition_result [31:0] $end
$var reg 32 C alu_result [31:0] $end
$var reg 32 D shifted_operand_b [31:0] $end
$upscope $end
$scope module ctrl $end
$var wire 7 E opcode [6:0] $end
$var wire 32 F instruction [31:0] $end
$var wire 7 G funct7 [6:0] $end
$var wire 3 H funct3 [2:0] $end
$var reg 4 I alu_control [3:0] $end
$var reg 2 J alu_op [1:0] $end
$var reg 1 8 branch $end
$var reg 1 6 dmem_we $end
$var reg 1 * rf_we $end
$var reg 1 & sel_alu_src_b $end
$var reg 3 K sel_ext [2:0] $end
$var reg 1 $ sel_pc_src $end
$var reg 2 L sel_result [1:0] $end
$upscope $end
$scope module dmem $end
$var wire 32 M address [31:0] $end
$var wire 1 ! clock $end
$var wire 1 6 write_enable $end
$var wire 32 N write_data [31:0] $end
$var reg 32 O read_data [31:0] $end
$upscope $end
$scope module inst_mem $end
$var wire 32 P pc [31:0] $end
$var reg 32 Q instruction [31:0] $end
$upscope $end
$scope module mux_alu_src_b $end
$var wire 1 & sel $end
$var wire 32 R out [31:0] $end
$var wire 32 S input2 [31:0] $end
$var wire 32 T input1 [31:0] $end
$upscope $end
$scope module mux_pc_src $end
$var wire 32 U input1 [31:0] $end
$var wire 1 V sel $end
$var wire 32 W out [31:0] $end
$var wire 32 X input2 [31:0] $end
$upscope $end
$scope module mux_result_alu_mem $end
$var wire 32 Y input1 [31:0] $end
$var wire 32 Z input2 [31:0] $end
$var wire 1 [ sel $end
$var wire 32 \ out [31:0] $end
$upscope $end
$scope module mux_result_final $end
$var wire 32 ] input1 [31:0] $end
$var wire 1 ^ sel $end
$var wire 32 _ out [31:0] $end
$var wire 32 ` input2 [31:0] $end
$upscope $end
$scope module mux_result_pc_imm_mux $end
$var wire 1 a sel $end
$var wire 32 b out [31:0] $end
$var wire 32 c input2 [31:0] $end
$var wire 32 d input1 [31:0] $end
$upscope $end
$scope module pc_adder $end
$var wire 32 e pc [31:0] $end
$var wire 32 f next_pc [31:0] $end
$upscope $end
$scope module pc_module $end
$var wire 1 ! clk $end
$var wire 32 g next_pc [31:0] $end
$var reg 32 h pc [31:0] $end
$upscope $end
$scope module rf $end
$var wire 1 ! clock $end
$var wire 5 i read_address_1 [4:0] $end
$var wire 5 j read_address_2 [4:0] $end
$var wire 5 k write_address [4:0] $end
$var wire 32 l write_data [31:0] $end
$var wire 1 * write_enable $end
$var reg 32 m read_data_1 [31:0] $end
$var reg 32 n read_data_2 [31:0] $end
$upscope $end
$scope module sign_ext $end
$var wire 32 o instruction [31:0] $end
$var wire 3 p sel_ext [2:0] $end
$var reg 32 q imm_extended [31:0] $end
$var reg 12 r immediate_12bit [11:0] $end
$var reg 13 s immediate_13bit [12:0] $end
$var reg 20 t immediate_20bit [19:0] $end
$var reg 21 u immediate_21bit [20:0] $end
$var reg 1 v sign_bit $end
$upscope $end
$upscope $end
$upscope $end
$enddefinitions $end
#0
$dumpvars
0v
bx u
bx t
bx s
b101 r
b101 q
b0 p
b10100000000000010010011 o
bx n
b0 m
b101 l
b1 k
b101 j
b0 i
b0 h
b100 g
b100 f
b0 e
b100 d
b101 c
b101 b
0a
b101 `
b101 _
0^
bx ]
bx \
0[
bx Z
bx Y
b100 X
b100 W
0V
b101 U
bx T
b101 S
bx R
b10100000000000010010011 Q
b0 P
bx O
bx N
bx M
b0 L
b0 K
b10 J
b0 I
b0 H
b0 G
b10100000000000010010011 F
b10011 E
bx D
bx C
bx B
b0 A
bx @
b0 ?
b101 >
b0 =
b101 <
b0 ;
bx :
bx 9
08
bx 7
06
b101 5
b10100000000000010010011 4
bx 3
b101 2
b100 1
b0 0
b100 /
b101 .
b1 -
b0 ,
bx +
1*
b101 )
b0 (
b101 '
1&
b0 %
0$
b0 #
0"
0!
$end
#10
b1010 )
b1010 _
b1010 l
b1010 2
b1010 `
b1010 b
b10 -
b10 k
b1010 '
b1010 j
b1010 5
b1010 >
b1010 S
b1010 c
b1010 q
b1010 r
b1000 1
b1000 W
b1000 g
b101000000000000100010011 4
b101000000000000100010011 F
b101000000000000100010011 Q
b101000000000000100010011 o
b0 3
b0 \
b0 ]
b1000 /
b1000 X
b1000 d
b1000 f
b1110 .
b1110 <
b1110 U
b100 0
b100 =
b100 P
b100 e
b100 h
b0 7
b0 O
b0 Z
1!
#20
0!
#30
b1010 B
b101 D
b101 :
b101 @
b101 R
b0 9
b0 C
b0 M
b0 Y
b1 )
b1 _
b1 l
b100 ;
b100 ?
b100 I
b101 +
b101 N
b101 T
b101 n
b101 ,
b101 A
b101 m
b1 2
b1 `
b1 b
b10 H
b11 -
b11 k
b1 '
b1 j
b1 (
b1 i
b1 5
b1 >
b1 S
b1 c
b1 q
b1 r
b1100 1
b1100 W
b1100 g
b100001010000110010011 4
b100001010000110010011 F
b100001010000110010011 Q
b100001010000110010011 o
b1100 /
b1100 X
b1100 d
b1100 f
b1001 .
b1001 <
b1001 U
b1000 0
b1000 =
b1000 P
b1000 e
b1000 h
1!
#40
0!
#50
b110 ;
b110 ?
b110 I
b11 H
b100 -
b100 k
b10000 1
b10000 W
b10000 g
b100001011001000010011 4
b100001011001000010011 F
b100001011001000010011 Q
b100001011001000010011 o
bx 3
bx \
bx ]
b10000 /
b10000 X
b10000 d
b10000 f
b1101 .
b1101 <
b1101 U
b1100 0
b1100 =
b1100 P
b1100 e
b1100 h
bx 7
bx O
bx Z
1!
#60
0!
#70
b1000 ;
b1000 ?
b1000 I
b100 H
b101 -
b101 k
b0 3
b0 \
b0 ]
b10100 1
b10100 W
b10100 g
b100001100001010010011 4
b100001100001010010011 F
b100001100001010010011 Q
b100001100001010010011 o
b0 7
b0 O
b0 Z
b10100 /
b10100 X
b10100 d
b10100 f
b10001 .
b10001 <
b10001 U
b10000 0
b10000 =
b10000 P
b10000 e
b10000 h
1!
#80
0!
#90
b101 9
b101 C
b101 M
b101 Y
b1100 ;
b1100 ?
b1100 I
b110 H
b110 -
b110 k
b11000 1
b11000 W
b11000 g
b100001110001100010011 4
b100001110001100010011 F
b100001110001100010011 Q
b100001110001100010011 o
bx 3
bx \
bx ]
b11000 /
b11000 X
b11000 d
b11000 f
b10101 .
b10101 <
b10101 U
b10100 0
b10100 =
b10100 P
b10100 e
b10100 h
bx 7
bx O
bx Z
1!
#100
0!
#110
b1110 ;
b1110 ?
b1110 I
b111 H
b111 -
b111 k
b0 3
b0 \
b0 ]
b11100 1
b11100 W
b11100 g
b100001111001110010011 4
b100001111001110010011 F
b100001111001110010011 Q
b100001111001110010011 o
b0 7
b0 O
b0 Z
b11100 /
b11100 X
b11100 d
b11100 f
b11001 .
b11001 <
b11001 U
b11000 0
b11000 =
b11000 P
b11000 e
b11000 h
1!
#120
0!
#130
b10100000 9
b10100000 C
b10100000 M
b10100000 Y
b10 ;
b10 ?
b10 I
b1 H
b10 -
b10 k
b100000 1
b100000 W
b100000 g
b100001001000100010011 4
b100001001000100010011 F
b100001001000100010011 Q
b100001001000100010011 o
bx 3
bx \
bx ]
b100000 /
b100000 X
b100000 d
b100000 f
b11101 .
b11101 <
b11101 U
b11100 0
b11100 =
b11100 P
b11100 e
b11100 h
bx 7
bx O
bx Z
1!
#140
0!
#150
b0 9
b0 C
b0 M
b0 Y
b1010 ;
b1010 ?
b1010 I
b101 H
b11 -
b11 k
b0 3
b0 \
b0 ]
b100100 1
b100100 W
b100100 g
b100001101000110010011 4
b100001101000110010011 F
b100001101000110010011 Q
b100001101000110010011 o
b0 7
b0 O
b0 Z
b100100 /
b100100 X
b100100 d
b100100 f
b100001 .
b100001 <
b100001 U
b100000 0
b100000 =
b100000 P
b100000 e
b100000 h
1!
#160
0!
#170
b10000000001 )
b10000000001 _
b10000000001 l
b1011 ;
b1011 ?
b1011 I
b10000000001 2
b10000000001 `
b10000000001 b
b100000 G
b100 -
b100 k
b10000000001 5
b10000000001 >
b10000000001 S
b10000000001 c
b10000000001 q
b10000000001 r
b101000 1
b101000 W
b101000 g
b1000000000100001101001000010011 4
b1000000000100001101001000010011 F
b1000000000100001101001000010011 Q
b1000000000100001101001000010011 o
bx 3
bx \
bx ]
b101000 /
b101000 X
b101000 d
b101000 f
b10000100101 .
b10000100101 <
b10000100101 U
b100100 0
b100100 =
b100100 P
b100100 e
b100100 h
bx 7
bx O
bx Z
1!
#180
0!
#190
b111 9
b111 C
b111 M
b111 Y
b111 B
b10 D
b10 :
b10 @
b10 R
b10 )
b10 _
b10 l
b0 ;
b0 ?
b0 I
b1 J
0&
b1 +
b1 N
b1 T
b1 n
b10 2
b10 `
b10 b
b0 G
b0 H
b110011 E
b11 -
b11 k
b10 '
b10 j
b10 5
b10 >
b10 S
b10 c
b10 q
b10 r
b0 3
b0 \
b0 ]
b101100 1
b101100 W
b101100 g
b1000001000000110110011 4
b1000001000000110110011 F
b1000001000000110110011 Q
b1000001000000110110011 o
b0 7
b0 O
b0 Z
b101100 /
b101100 X
b101100 d
b101100 f
b101010 .
b101010 <
b101010 U
b101000 0
b101000 =
b101000 P
b101000 e
b101000 h
1!
#200
0!
#210
b10000000010 )
b10000000010 _
b10000000010 l
b11111111111111111111110000000011 9
b11111111111111111111110000000011 C
b11111111111111111111110000000011 M
b11111111111111111111110000000011 Y
b11111111111111111111110000000011 B
b11111111111111111111101111111110 D
b1 ;
b1 ?
b1 I
b10000000010 2
b10000000010 `
b10000000010 b
b10000000010 :
b10000000010 @
b10000000010 R
b100000 G
b10000000010 5
b10000000010 >
b10000000010 S
b10000000010 c
b10000000010 q
b10000000010 r
b110000 1
b110000 W
b110000 g
b1000000001000001000000110110011 4
b1000000001000001000000110110011 F
b1000000001000001000000110110011 Q
b1000000001000001000000110110011 o
bx 3
bx \
bx ]
b110000 /
b110000 X
b110000 d
b110000 f
b10000101110 .
b10000101110 <
b10000101110 U
b101100 0
b101100 =
b101100 P
b101100 e
b101100 h
bx 7
bx O
bx Z
1!
#220
0!
#230
b10 )
b10 _
b10 l
b10100 9
b10100 C
b10100 M
b10100 Y
b111 B
b10 D
b10 ;
b10 ?
b10 I
b10 2
b10 `
b10 b
b10 :
b10 @
b10 R
b0 G
b1 H
b10 5
b10 >
b10 S
b10 c
b10 q
b10 r
b0 3
b0 \
b0 ]
b110100 1
b110100 W
b110100 g
b1000001001000110110011 4
b1000001001000110110011 F
b1000001001000110110011 Q
b1000001001000110110011 o
b0 7
b0 O
b0 Z
b110100 /
b110100 X
b110100 d
b110100 f
b110010 .
b110010 <
b110010 U
b110000 0
b110000 =
b110000 P
b110000 e
b110000 h
1!
#240
0!
#250
b0 9
b0 C
b0 M
b0 Y
b100 ;
b100 ?
b100 I
b10 H
b111000 1
b111000 W
b111000 g
b1000001010000110110011 4
b1000001010000110110011 F
b1000001010000110110011 Q
b1000001010000110110011 o
bx 3
bx \
bx ]
b111000 /
b111000 X
b111000 d
b111000 f
b110110 .
b110110 <
b110110 U
b110100 0
b110100 =
b110100 P
b110100 e
b110100 h
bx 7
bx O
bx Z
1!
#260
0!
#270
b110 ;
b110 ?
b110 I
b11 H
b0 3
b0 \
b0 ]
b111100 1
b111100 W
b111100 g
b1000001011000110110011 4
b1000001011000110110011 F
b1000001011000110110011 Q
b1000001011000110110011 o
b0 7
b0 O
b0 Z
b111100 /
b111100 X
b111100 d
b111100 f
b111010 .
b111010 <
b111010 U
b111000 0
b111000 =
b111000 P
b111000 e
b111000 h
1!
#280
0!
#290
b111 9
b111 C
b111 M
b111 Y
b1000 ;
b1000 ?
b1000 I
b100 H
b1000000 1
b1000000 W
b1000000 g
b1000001100000110110011 4
b1000001100000110110011 F
b1000001100000110110011 Q
b1000001100000110110011 o
bx 3
bx \
bx ]
b1000000 /
b1000000 X
b1000000 d
b1000000 f
b111110 .
b111110 <
b111110 U
b111100 0
b111100 =
b111100 P
b111100 e
b111100 h
bx 7
bx O
bx Z
1!
#300
0!
#310
b1 9
b1 C
b1 M
b1 Y
b1010 ;
b1010 ?
b1010 I
b101 H
b0 3
b0 \
b0 ]
b1000100 1
b1000100 W
b1000100 g
b1000001101000110110011 4
b1000001101000110110011 F
b1000001101000110110011 Q
b1000001101000110110011 o
b0 7
b0 O
b0 Z
b1000100 /
b1000100 X
b1000100 d
b1000100 f
b1000010 .
b1000010 <
b1000010 U
b1000000 0
b1000000 =
b1000000 P
b1000000 e
b1000000 h
1!
#320
0!
#330
b10000000010 )
b10000000010 _
b10000000010 l
b10000000111 B
b10000000010 D
b1011 ;
b1011 ?
b1011 I
b10000000010 2
b10000000010 `
b10000000010 b
b10000000010 :
b10000000010 @
b10000000010 R
b100000 G
b10000000010 5
b10000000010 >
b10000000010 S
b10000000010 c
b10000000010 q
b10000000010 r
b1001000 1
b1001000 W
b1001000 g
b1000000001000001101000110110011 4
b1000000001000001101000110110011 F
b1000000001000001101000110110011 Q
b1000000001000001101000110110011 o
bx 3
bx \
bx ]
b1001000 /
b1001000 X
b1001000 d
b1001000 f
b10001000110 .
b10001000110 <
b10001000110 U
b1000100 0
b1000100 =
b1000100 P
b1000100 e
b1000100 h
bx 7
bx O
bx Z
1!
#340
0!
#350
b10 )
b10 _
b10 l
b111 9
b111 C
b111 M
b111 Y
b111 B
b10 D
b1100 ;
b1100 ?
b1100 I
b10 2
b10 `
b10 b
b10 :
b10 @
b10 R
b0 G
b110 H
b10 5
b10 >
b10 S
b10 c
b10 q
b10 r
b0 3
b0 \
b0 ]
b1001100 1
b1001100 W
b1001100 g
b1000001110000110110011 4
b1000001110000110110011 F
b1000001110000110110011 Q
b1000001110000110110011 o
b0 7
b0 O
b0 Z
b1001100 /
b1001100 X
b1001100 d
b1001100 f
b1001010 .
b1001010 <
b1001010 U
b1001000 0
b1001000 =
b1001000 P
b1001000 e
b1001000 h
1!
#360
0!
#370
b0 9
b0 C
b0 M
b0 Y
b1110 ;
b1110 ?
b1110 I
b111 H
b1010000 1
b1010000 W
b1010000 g
b1000001111000110110011 4
b1000001111000110110011 F
b1000001111000110110011 Q
b1000001111000110110011 o
bx 3
bx \
bx ]
b1010000 /
b1010000 X
b1010000 d
b1010000 f
b1001110 .
b1001110 <
b1001110 U
b1001100 0
b1001100 =
b1001100 P
b1001100 e
b1001100 h
bx 7
bx O
bx Z
1!
#380
0!
#390
1a
1[
b1010100 )
b1010100 _
b1010100 l
b0 B
b0 D
b0 ;
b0 ?
b0 I
b0 J
b1 #
b1 L
1&
b0 +
b0 N
b0 T
b0 n
b0 ,
b0 A
b0 m
b1010100 2
b1010100 `
b1010100 b
b0 :
b0 @
b0 R
b10 H
b11 E
b1 -
b1 k
b0 '
b0 j
b0 (
b0 i
b0 5
b0 >
b0 S
b0 c
b0 q
b0 r
b0 3
b0 \
b0 ]
b1010100 1
b1010100 W
b1010100 g
b10000010000011 4
b10000010000011 F
b10000010000011 Q
b10000010000011 o
b0 7
b0 O
b0 Z
b1010100 /
b1010100 X
b1010100 d
b1010100 f
b1010000 .
b1010000 <
b1010000 U
b1010000 0
b1010000 =
b1010000 P
b1010000 e
b1010000 h
1!
#400
0!
#410
b10000000001 3
b10000000001 \
b10000000001 ]
b10000000001 9
b10000000001 C
b10000000001 M
b10000000001 Y
b10000000001 B
b10000000001 D
b10000000001 :
b10000000001 @
b10000000001 R
b10000000001 +
b10000000001 N
b10000000001 T
b10000000001 n
b1011000 )
b1011000 _
b1011000 l
b10 -
b10 k
b100 '
b100 j
b100 5
b100 >
b100 S
b100 c
b100 q
b100 r
b1011000 2
b1011000 `
b1011000 b
b1011000 1
b1011000 W
b1011000 g
b10000000010000100000011 4
b10000000010000100000011 F
b10000000010000100000011 Q
b10000000010000100000011 o
b1011000 /
b1011000 X
b1011000 d
b1011000 f
b1011000 .
b1011000 <
b1011000 U
b1010100 0
b1010100 =
b1010100 P
b1010100 e
b1010100 h
bx 7
bx O
bx Z
1!
#420
0!
#430
bx 3
bx \
bx ]
bx 9
bx C
bx M
bx Y
bx B
bx D
bx :
bx @
bx R
bx +
bx N
bx T
bx n
b1011100 )
b1011100 _
b1011100 l
b11 -
b11 k
b1000 '
b1000 j
b1000 5
b1000 >
b1000 S
b1000 c
b1000 q
b1000 r
b1011100 2
b1011100 `
b1011100 b
b1011100 1
b1011100 W
b1011100 g
b100000000010000110000011 4
b100000000010000110000011 F
b100000000010000110000011 Q
b100000000010000110000011 o
b0 7
b0 O
b0 Z
b1011100 /
b1011100 X
b1011100 d
b1011100 f
b1100000 .
b1100000 <
b1100000 U
b1011000 0
b1011000 =
b1011000 P
b1011000 e
b1011000 h
1!
#440
0!
#450
b0 3
b0 \
b0 ]
b1011100 9
b1011100 C
b1011100 M
b1011100 Y
b1011100 B
b1011100 D
0a
0[
b1011100 :
b1011100 @
b1011100 R
b0 #
b0 L
16
b1 %
b1 K
b1 p
0*
b1011100 +
b1011100 N
b1011100 T
b1011100 n
b0 )
b0 _
b0 l
b100011 E
b0 -
b0 k
b11 '
b11 j
b0 5
b0 >
b0 S
b0 c
b0 q
b0 r
b0 2
b0 `
b0 b
b1100000 1
b1100000 W
b1100000 g
b1100000010000000100011 4
b1100000010000000100011 F
b1100000010000000100011 Q
b1100000010000000100011 o
b1100000 /
b1100000 X
b1100000 d
b1100000 f
b1011100 .
b1011100 <
b1011100 U
b1011100 0
b1011100 =
b1011100 P
b1011100 e
b1011100 h
1!
#460
0!
#470
b10000000001 9
b10000000001 C
b10000000001 M
b10000000001 Y
b10000000001 B
b10000000001 D
b10000000001 :
b10000000001 @
b10000000001 R
b10 )
b10 _
b10 l
b10000000001 +
b10000000001 N
b10000000001 T
b10000000001 n
b10 2
b10 `
b10 b
b10 -
b10 k
b100 '
b100 j
b10 5
b10 >
b10 S
b10 c
b10 q
b10 r
bx 3
bx \
bx ]
b1100100 1
b1100100 W
b1100100 g
b10000000010000100100011 4
b10000000010000100100011 F
b10000000010000100100011 Q
b10000000010000100100011 o
bx 7
bx O
bx Z
b1100100 /
b1100100 X
b1100100 d
b1100100 f
b1100010 .
b1100010 <
b1100010 U
b1100000 0
b1100000 =
b1100000 P
b1100000 e
b1100000 h
1!
#480
0!
#490
b1 9
b1 C
b1 M
b1 Y
b1 B
b1 D
b1 :
b1 @
b1 R
b100 )
b100 _
b100 l
b1 +
b1 N
b1 T
b1 n
b100 2
b100 `
b100 b
b100 -
b100 k
b101 '
b101 j
b100 5
b100 >
b100 S
b100 c
b100 q
b100 r
b1101000 1
b1101000 W
b1101000 g
b10100000010001000100011 4
b10100000010001000100011 F
b10100000010001000100011 Q
b10100000010001000100011 o
b1101000 /
b1101000 X
b1101000 d
b1101000 f
b1101000 .
b1101000 <
b1101000 U
b1100100 0
b1100100 =
b1100100 P
b1100100 e
b1100100 h
1!
#500
0!
#510
b101 )
b101 _
b101 l
b10 J
06
b0 %
b0 K
b0 p
1*
b101 2
b101 `
b101 b
b0 H
b10011 E
b1 -
b1 k
b101 5
b101 >
b101 S
b101 c
b101 q
b101 r
b1101100 1
b1101100 W
b1101100 g
b10100000000000010010011 4
b10100000000000010010011 F
b10100000000000010010011 Q
b10100000000000010010011 o
b1101100 /
b1101100 X
b1101100 d
b1101100 f
b1101101 .
b1101101 <
b1101101 U
b1101000 0
b1101000 =
b1101000 P
b1101000 e
b1101000 h
1!
#520
0!
#530
b10 -
b10 k
b1110000 1
b1110000 W
b1110000 g
b10100000000000100010011 4
b10100000000000100010011 F
b10100000000000100010011 Q
b10100000000000100010011 o
b1 3
b1 \
b1 ]
b1110000 /
b1110000 X
b1110000 d
b1110000 f
b1110001 .
b1110001 <
b1110001 U
b1101100 0
b1101100 =
b1101100 P
b1101100 e
b1101100 h
b1 7
b1 O
b1 Z
1!
#540
0!
#550
b0 D
1V
b0 s
b0 :
b0 @
b0 R
1"
b101 9
b101 C
b101 M
b101 Y
b101 B
b0 )
b0 _
b0 l
b0 J
18
0&
b10 %
b10 K
b10 p
0*
b101 +
b101 N
b101 T
b101 n
b101 ,
b101 A
b101 m
b0 2
b0 `
b0 b
b1100011 E
b0 -
b0 k
b10 '
b10 j
b1 (
b1 i
b0 5
b0 >
b0 S
b0 c
b0 q
b10 r
b0 3
b0 \
b0 ]
b1110000 1
b1110000 W
b1110000 g
b1000001000000001100011 4
b1000001000000001100011 F
b1000001000000001100011 Q
b1000001000000001100011 o
b0 7
b0 O
b0 Z
b1110100 /
b1110100 X
b1110100 d
b1110100 f
b1110000 .
b1110000 <
b1110000 U
b1110000 0
b1110000 =
b1110000 P
b1110000 e
b1110000 h
1!
#560
0!
#570
bx 3
bx \
bx ]
bx 7
bx O
bx Z
1!
#580
0!
#590
b0 3
b0 \
b0 ]
b0 7
b0 O
b0 Z
1!
#600
0!
#610
bx 3
bx \
bx ]
bx 7
bx O
bx Z
1!
#620
0!
#630
b0 3
b0 \
b0 ]
b0 7
b0 O
b0 Z
1!
#640
0!
#650
bx 3
bx \
bx ]
bx 7
bx O
bx Z
1!
#660
0!
#670
b0 3
b0 \
b0 ]
b0 7
b0 O
b0 Z
1!
#680
0!
#690
bx 3
bx \
bx ]
bx 7
bx O
bx Z
1!
#700
0!
#710
b0 3
b0 \
b0 ]
b0 7
b0 O
b0 Z
1!
#720
0!
#730
bx 3
bx \
bx ]
bx 7
bx O
bx Z
1!
#740
0!
#750
b0 3
b0 \
b0 ]
b0 7
b0 O
b0 Z
1!
#760
0!
#770
bx 3
bx \
bx ]
bx 7
bx O
bx Z
1!
#780
0!
#790
b0 3
b0 \
b0 ]
b0 7
b0 O
b0 Z
1!
#800
0!
#810
bx 3
bx \
bx ]
bx 7
bx O
bx Z
1!
#820
0!
#830
b0 3
b0 \
b0 ]
b0 7
b0 O
b0 Z
1!
#840
0!
#850
bx 3
bx \
bx ]
bx 7
bx O
bx Z
1!
#860
0!
#870
b0 3
b0 \
b0 ]
b0 7
b0 O
b0 Z
1!
#880
0!
#890
bx 3
bx \
bx ]
bx 7
bx O
bx Z
1!
#900
0!
#910
b0 3
b0 \
b0 ]
b0 7
b0 O
b0 Z
1!
#920
0!
#930
bx 3
bx \
bx ]
bx 7
bx O
bx Z
1!
#940
0!
#950
b0 3
b0 \
b0 ]
b0 7
b0 O
b0 Z
1!
#960
0!
#970
bx 3
bx \
bx ]
bx 7
bx O
bx Z
1!
#980
0!
#990
b0 3
b0 \
b0 ]
b0 7
b0 O
b0 Z
1!
#1000
0!
#1010
bx 3
bx \
bx ]
bx 7
bx O
bx Z
1!
#1020
0!
#1030
b0 3
b0 \
b0 ]
b0 7
b0 O
b0 Z
1!
#1040
0!
#1050
bx 3
bx \
bx ]
bx 7
bx O
bx Z
1!
#1060
0!
#1070
b0 3
b0 \
b0 ]
b0 7
b0 O
b0 Z
1!
#1080
0!
#1090
bx 3
bx \
bx ]
bx 7
bx O
bx Z
1!
#1100
0!
#1110
b0 3
b0 \
b0 ]
b0 7
b0 O
b0 Z
1!
#1120
0!
#1130
bx 3
bx \
bx ]
bx 7
bx O
bx Z
1!
#1140
0!
#1150
b0 3
b0 \
b0 ]
b0 7
b0 O
b0 Z
1!
#1160
0!
#1170
bx 3
bx \
bx ]
bx 7
bx O
bx Z
1!
#1180
0!
#1190
b0 3
b0 \
b0 ]
b0 7
b0 O
b0 Z
1!
#1200
0!
#1210
bx 3
bx \
bx ]
bx 7
bx O
bx Z
1!
#1220
0!
#1230
b0 3
b0 \
b0 ]
b0 7
b0 O
b0 Z
1!
#1240
0!
#1250
bx 3
bx \
bx ]
bx 7
bx O
bx Z
1!
#1260
0!
#1270
b0 3
b0 \
b0 ]
b0 7
b0 O
b0 Z
1!
#1280
0!
#1290
bx 3
bx \
bx ]
bx 7
bx O
bx Z
1!
#1300
0!
#1310
b0 3
b0 \
b0 ]
b0 7
b0 O
b0 Z
1!
#1320
0!
#1330
bx 3
bx \
bx ]
bx 7
bx O
bx Z
1!
#1340
0!
#1350
b0 3
b0 \
b0 ]
b0 7
b0 O
b0 Z
1!
#1360
0!
#1370
bx 3
bx \
bx ]
bx 7
bx O
bx Z
1!
#1380
0!
#1390
b0 3
b0 \
b0 ]
b0 7
b0 O
b0 Z
1!
#1400
0!
#1410
bx 3
bx \
bx ]
bx 7
bx O
bx Z
1!
#1420
0!
#1430
b0 3
b0 \
b0 ]
b0 7
b0 O
b0 Z
1!
#1440
0!
#1450
bx 3
bx \
bx ]
bx 7
bx O
bx Z
1!
#1460
0!
#1470
b0 3
b0 \
b0 ]
b0 7
b0 O
b0 Z
1!
#1480
0!
#1490
bx 3
bx \
bx ]
bx 7
bx O
bx Z
1!
#1500
0!
#1510
b0 3
b0 \
b0 ]
b0 7
b0 O
b0 Z
1!
#1520
0!
#1530
bx 3
bx \
bx ]
bx 7
bx O
bx Z
1!
#1540
0!
#1550
b0 3
b0 \
b0 ]
b0 7
b0 O
b0 Z
1!
#1560
0!
#1570
bx 3
bx \
bx ]
bx 7
bx O
bx Z
1!
#1580
0!
#1590
b0 3
b0 \
b0 ]
b0 7
b0 O
b0 Z
1!
#1600
0!
#1610
bx 3
bx \
bx ]
bx 7
bx O
bx Z
1!
#1620
0!
#1630
b0 3
b0 \
b0 ]
b0 7
b0 O
b0 Z
1!
#1640
0!
#1650
bx 3
bx \
bx ]
bx 7
bx O
bx Z
1!
#1660
0!
#1670
b0 3
b0 \
b0 ]
b0 7
b0 O
b0 Z
1!
#1680
0!
#1690
bx 3
bx \
bx ]
bx 7
bx O
bx Z
1!
#1700
0!
#1710
b0 3
b0 \
b0 ]
b0 7
b0 O
b0 Z
1!
#1720
0!
#1730
bx 3
bx \
bx ]
bx 7
bx O
bx Z
1!
#1740
0!
#1750
b0 3
b0 \
b0 ]
b0 7
b0 O
b0 Z
1!
#1760
0!
#1770
bx 3
bx \
bx ]
bx 7
bx O
bx Z
1!
#1780
0!
#1790
b0 3
b0 \
b0 ]
b0 7
b0 O
b0 Z
1!
#1800
0!
#1810
bx 3
bx \
bx ]
bx 7
bx O
bx Z
1!
#1820
0!
#1830
b0 3
b0 \
b0 ]
b0 7
b0 O
b0 Z
1!
#1840
0!
#1850
bx 3
bx \
bx ]
bx 7
bx O
bx Z
1!
#1860
0!
#1870
b0 3
b0 \
b0 ]
b0 7
b0 O
b0 Z
1!
#1880
0!
#1890
bx 3
bx \
bx ]
bx 7
bx O
bx Z
1!
#1900
0!
#1910
b0 3
b0 \
b0 ]
b0 7
b0 O
b0 Z
1!
#1920
0!
#1930
bx 3
bx \
bx ]
bx 7
bx O
bx Z
1!
#1940
0!
#1950
b0 3
b0 \
b0 ]
b0 7
b0 O
b0 Z
1!
#1960
0!
#1970
bx 3
bx \
bx ]
bx 7
bx O
bx Z
1!
#1980
0!
#1990
b0 3
b0 \
b0 ]
b0 7
b0 O
b0 Z
1!
#2000
0!
#2010
bx 3
bx \
bx ]
bx 7
bx O
bx Z
1!
#2020
0!
#2030
b0 3
b0 \
b0 ]
b0 7
b0 O
b0 Z
1!
#2040
0!
#2050
bx 3
bx \
bx ]
bx 7
bx O
bx Z
1!
#2060
0!
#2070
b0 3
b0 \
b0 ]
b0 7
b0 O
b0 Z
1!
#2080
0!
#2090
bx 3
bx \
bx ]
bx 7
bx O
bx Z
1!
#2100
0!
#2110
b0 3
b0 \
b0 ]
b0 7
b0 O
b0 Z
1!
#2120
0!
#2130
bx 3
bx \
bx ]
bx 7
bx O
bx Z
1!
#2140
0!
#2150
b0 3
b0 \
b0 ]
b0 7
b0 O
b0 Z
1!
#2160
0!
#2170
bx 3
bx \
bx ]
bx 7
bx O
bx Z
1!
#2180
0!
#2190
b0 3
b0 \
b0 ]
b0 7
b0 O
b0 Z
1!
#2200
0!
#2210
bx 3
bx \
bx ]
bx 7
bx O
bx Z
1!
#2220
0!
#2230
b0 3
b0 \
b0 ]
b0 7
b0 O
b0 Z
1!
#2240
0!
#2250
bx 3
bx \
bx ]
bx 7
bx O
bx Z
1!
#2260
0!
#2270
b0 3
b0 \
b0 ]
b0 7
b0 O
b0 Z
1!
#2280
0!
#2290
bx 3
bx \
bx ]
bx 7
bx O
bx Z
1!
#2300
0!
#2310
b0 3
b0 \
b0 ]
b0 7
b0 O
b0 Z
1!
#2320
0!
#2330
bx 3
bx \
bx ]
bx 7
bx O
bx Z
1!
#2340
0!
