pipelined/riscv_pipelined.vcd
$date
	Mon Jan 12 09:47:10 2026
$end
$version
	Icarus Verilog
$end
$timescale
	1s
$end
$scope module testbench $end
$var reg 1 ! clock $end
$var reg 1 " rst_n $end
$scope module dut $end
$var wire 5 # D_rf_a3 [4:0] $end
$var wire 5 $ D_rs1 [4:0] $end
$var wire 5 % D_rs2 [4:0] $end
$var wire 1 ! clk $end
$var wire 1 & rst $end
$var wire 1 " rst_n $end
$var wire 5 ' rs2 [4:0] $end
$var wire 5 ( rs1 [4:0] $end
$var wire 32 ) result_mux1_out [31:0] $end
$var wire 32 * result_mux0_out [31:0] $end
$var wire 5 + rd [4:0] $end
$var wire 7 , opcode [6:0] $end
$var wire 32 - next_pc [31:0] $end
$var wire 1 . funct7s $end
$var wire 3 / funct3 [2:0] $end
$var wire 32 0 alu_src_b [31:0] $end
$var wire 32 1 alu_op2_forwarded [31:0] $end
$var wire 32 2 alu_op1_forwarded [31:0] $end
$var wire 1 3 W_we_rf $end
$var wire 2 4 W_sel_result [1:0] $end
$var wire 5 5 W_rf_a3 [4:0] $end
$var wire 32 6 W_result [31:0] $end
$var wire 32 7 W_ext [31:0] $end
$var wire 32 8 W_dm_rd [31:0] $end
$var wire 32 9 W_alu_o [31:0] $end
$var wire 32 : W_PC_P4 [31:0] $end
$var wire 1 ; PC_en $end
$var wire 1 < M_we_rf $end
$var wire 1 = M_we_dm $end
$var wire 2 > M_sel_result [1:0] $end
$var wire 5 ? M_rf_a3 [4:0] $end
$var wire 32 @ M_ext [31:0] $end
$var wire 32 A M_dm_wd [31:0] $end
$var wire 32 B M_dm_rd [31:0] $end
$var wire 32 C M_alu_o [31:0] $end
$var wire 32 D M_PC_P4 [31:0] $end
$var wire 1 E IF_ID_en $end
$var wire 1 F IF_ID_clr $end
$var wire 1 G ID_EX_clr $end
$var wire 32 H F_instr [31:0] $end
$var wire 32 I F_PC_P4 [31:0] $end
$var wire 32 J F_PC [31:0] $end
$var wire 1 K E_zero $end
$var wire 1 L E_we_rf $end
$var wire 1 M E_we_dm $end
$var wire 32 N E_target_PC [31:0] $end
$var wire 2 O E_sel_result [1:0] $end
$var wire 1 P E_sel_alu_src_b $end
$var wire 5 Q E_rs2 [4:0] $end
$var wire 5 R E_rs1 [4:0] $end
$var wire 32 S E_rf_rd2 [31:0] $end
$var wire 32 T E_rf_rd1 [31:0] $end
$var wire 5 U E_rf_a3 [4:0] $end
$var wire 1 V E_jump $end
$var wire 2 W E_forward_alu_op2 [1:0] $end
$var wire 2 X E_forward_alu_op1 [1:0] $end
$var wire 32 Y E_ext [31:0] $end
$var wire 1 Z E_branch $end
$var wire 32 [ E_alu_o [31:0] $end
$var wire 4 \ E_alu_control [3:0] $end
$var wire 32 ] E_PC_P4 [31:0] $end
$var wire 32 ^ E_PC [31:0] $end
$var wire 1 _ D_we_rf $end
$var wire 1 ` D_we_dm $end
$var wire 32 a D_target_PC [31:0] $end
$var wire 2 b D_sel_result [1:0] $end
$var wire 3 c D_sel_ext [2:0] $end
$var wire 1 d D_sel_alu_src_b $end
$var wire 32 e D_rf_rd2 [31:0] $end
$var wire 32 f D_rf_rd1 [31:0] $end
$var wire 1 g D_jump $end
$var wire 32 h D_instr [31:0] $end
$var wire 32 i D_ext [31:0] $end
$var wire 1 j D_branch $end
$var wire 4 k D_alu_control [3:0] $end
$var wire 32 l D_PC_P4 [31:0] $end
$var wire 32 m D_PC [31:0] $end
$var reg 1 n rst_sync1 $end
$var reg 1 o rst_sync2 $end
$scope module DMEM $end
$var wire 1 ! clock $end
$var wire 1 = write_enable $end
$var wire 32 p write_data [31:0] $end
$var wire 32 q address [31:0] $end
$var reg 32 r read_data [31:0] $end
$upscope $end
$scope module IMEM $end
$var wire 32 s pc [31:0] $end
$var reg 32 t instruction [31:0] $end
$upscope $end
$scope module RF $end
$var wire 1 ! clock $end
$var wire 5 u read_address_1 [4:0] $end
$var wire 5 v read_address_2 [4:0] $end
$var wire 1 3 write_enable $end
$var wire 32 w write_data [31:0] $end
$var wire 5 x write_address [4:0] $end
$var reg 32 y read_data_1 [31:0] $end
$var reg 32 z read_data_2 [31:0] $end
$upscope $end
$scope module alu $end
$var wire 4 { alu_control [3:0] $end
$var wire 32 | RD2 [31:0] $end
$var wire 32 } RD1 [31:0] $end
$var reg 32 ~ addition_result [31:0] $end
$var reg 32 !" alu_result [31:0] $end
$var reg 32 "" shifted_operand_b [31:0] $end
$upscope $end
$scope module ctrl $end
$var wire 3 #" funct3 [2:0] $end
$var wire 1 . funct7s $end
$var wire 7 $" op [6:0] $end
$var reg 4 %" D_alu_control [3:0] $end
$var reg 1 j D_branch $end
$var reg 1 g D_jump $end
$var reg 1 d D_sel_alu_src_b $end
$var reg 3 &" D_sel_ext [2:0] $end
$var reg 2 '" D_sel_result [1:0] $end
$var reg 1 ` D_we_dm $end
$var reg 1 _ D_we_rf $end
$var reg 2 (" alu_op [1:0] $end
$upscope $end
$scope module hazard $end
$var wire 1 g D_jump $end
$var wire 5 )" D_rs1 [4:0] $end
$var wire 5 *" D_rs2 [4:0] $end
$var wire 1 +" branch_taken $end
$var wire 1 ," lw_hazard $end
$var wire 1 3 W_we_rf $end
$var wire 5 -" W_rd [4:0] $end
$var wire 1 < M_we_rf $end
$var wire 2 ." M_sel_result [1:0] $end
$var wire 5 /" M_rd [4:0] $end
$var wire 1 0" M_is_lw $end
$var wire 1 K E_zero $end
$var wire 1 L E_we_rf $end
$var wire 2 1" E_sel_result [1:0] $end
$var wire 5 2" E_rs2 [4:0] $end
$var wire 5 3" E_rs1 [4:0] $end
$var wire 5 4" E_rd [4:0] $end
$var wire 1 5" E_is_lw $end
$var wire 1 Z E_branch $end
$var reg 2 6" E_forward_alu_op1 [1:0] $end
$var reg 2 7" E_forward_alu_op2 [1:0] $end
$var reg 1 G ID_EX_clr $end
$var reg 1 F IF_ID_clr $end
$var reg 1 E IF_ID_en $end
$var reg 1 ; PC_en $end
$upscope $end
$scope module jump_target_adder $end
$var wire 32 8" pc_plus_imm [31:0] $end
$var wire 32 9" pc [31:0] $end
$var wire 32 :" imm_extended [31:0] $end
$upscope $end
$scope module mux_alu_src_b $end
$var wire 1 P sel $end
$var wire 32 ;" out [31:0] $end
$var wire 32 <" input2 [31:0] $end
$var wire 32 =" input1 [31:0] $end
$upscope $end
$scope module mux_forward_op1 $end
$var wire 2 >" sel [1:0] $end
$var wire 32 ?" out [31:0] $end
$var wire 32 @" input2 [31:0] $end
$var wire 32 A" input1 [31:0] $end
$var wire 32 B" input0 [31:0] $end
$upscope $end
$scope module mux_forward_op2 $end
$var wire 2 C" sel [1:0] $end
$var wire 32 D" out [31:0] $end
$var wire 32 E" input2 [31:0] $end
$var wire 32 F" input1 [31:0] $end
$var wire 32 G" input0 [31:0] $end
$upscope $end
$scope module mux_pc_src $end
$var wire 32 H" input1 [31:0] $end
$var wire 1 g sel $end
$var wire 32 I" out [31:0] $end
$var wire 32 J" input2 [31:0] $end
$upscope $end
$scope module mux_result $end
$var wire 1 K" sel $end
$var wire 32 L" out [31:0] $end
$var wire 32 M" input2 [31:0] $end
$var wire 32 N" input1 [31:0] $end
$upscope $end
$scope module mux_result_0 $end
$var wire 1 O" sel $end
$var wire 32 P" out [31:0] $end
$var wire 32 Q" input2 [31:0] $end
$var wire 32 R" input1 [31:0] $end
$upscope $end
$scope module mux_result_1 $end
$var wire 1 S" sel $end
$var wire 32 T" out [31:0] $end
$var wire 32 U" input2 [31:0] $end
$var wire 32 V" input1 [31:0] $end
$upscope $end
$scope module pc_adder $end
$var wire 32 W" pc_plus_4 [31:0] $end
$var wire 32 X" pc [31:0] $end
$upscope $end
$scope module pc_module $end
$var wire 1 ! clk $end
$var wire 32 Y" next_pc [31:0] $end
$var wire 1 ; pc_en $end
$var wire 1 & rst $end
$var reg 32 Z" pc [31:0] $end
$upscope $end
$scope module reg_ex_ma $end
$var wire 32 [" E_alu_o [31:0] $end
$var wire 1 ! clk $end
$var wire 1 & rst $end
$var wire 1 L E_we_rf $end
$var wire 1 M E_we_dm $end
$var wire 2 \" E_sel_result [1:0] $end
$var wire 32 ]" E_rf_rd2 [31:0] $end
$var wire 5 ^" E_rf_a3 [4:0] $end
$var wire 32 _" E_ext [31:0] $end
$var wire 32 `" E_PC_P4 [31:0] $end
$var reg 32 a" M_PC_P4 [31:0] $end
$var reg 32 b" M_alu_o [31:0] $end
$var reg 32 c" M_dm_wd [31:0] $end
$var reg 32 d" M_ext [31:0] $end
$var reg 5 e" M_rf_a3 [4:0] $end
$var reg 2 f" M_sel_result [1:0] $end
$var reg 1 = M_we_dm $end
$var reg 1 < M_we_rf $end
$upscope $end
$scope module reg_id_ex $end
$var wire 4 g" D_alu_control [3:0] $end
$var wire 1 j D_branch $end
$var wire 1 g D_jump $end
$var wire 5 h" D_rf_a3 [4:0] $end
$var wire 32 i" D_rf_rd1 [31:0] $end
$var wire 32 j" D_rf_rd2 [31:0] $end
$var wire 5 k" D_rs1 [4:0] $end
$var wire 5 l" D_rs2 [4:0] $end
$var wire 1 d D_sel_alu_src_b $end
$var wire 2 m" D_sel_result [1:0] $end
$var wire 1 ` D_we_dm $end
$var wire 1 _ D_we_rf $end
$var wire 1 ! clk $end
$var wire 1 G clr $end
$var wire 1 & rst $end
$var wire 32 n" D_ext [31:0] $end
$var wire 32 o" D_PC_P4 [31:0] $end
$var wire 32 p" D_PC [31:0] $end
$var reg 32 q" E_PC [31:0] $end
$var reg 32 r" E_PC_P4 [31:0] $end
$var reg 4 s" E_alu_control [3:0] $end
$var reg 1 Z E_branch $end
$var reg 32 t" E_ext [31:0] $end
$var reg 1 V E_jump $end
$var reg 5 u" E_rf_a3 [4:0] $end
$var reg 32 v" E_rf_rd1 [31:0] $end
$var reg 32 w" E_rf_rd2 [31:0] $end
$var reg 5 x" E_rs1 [4:0] $end
$var reg 5 y" E_rs2 [4:0] $end
$var reg 1 P E_sel_alu_src_b $end
$var reg 2 z" E_sel_result [1:0] $end
$var reg 1 M E_we_dm $end
$var reg 1 L E_we_rf $end
$upscope $end
$scope module reg_if_id $end
$var wire 32 {" F_PC [31:0] $end
$var wire 32 |" F_PC_P4 [31:0] $end
$var wire 32 }" F_instr [31:0] $end
$var wire 1 ! clk $end
$var wire 1 F clr $end
$var wire 1 E en $end
$var wire 1 & rst $end
$var reg 32 ~" D_PC [31:0] $end
$var reg 32 !# D_PC_P4 [31:0] $end
$var reg 32 "# D_instr [31:0] $end
$upscope $end
$scope module reg_ma_wb $end
$var wire 32 ## M_PC_P4 [31:0] $end
$var wire 32 $# M_alu_o [31:0] $end
$var wire 32 %# M_dm_rd [31:0] $end
$var wire 32 &# M_ext [31:0] $end
$var wire 5 '# M_rf_a3 [4:0] $end
$var wire 2 (# M_sel_result [1:0] $end
$var wire 1 < M_we_rf $end
$var wire 1 ! clk $end
$var wire 1 & rst $end
$var reg 32 )# W_PC_P4 [31:0] $end
$var reg 32 *# W_alu_o [31:0] $end
$var reg 32 +# W_dm_rd [31:0] $end
$var reg 32 ,# W_ext [31:0] $end
$var reg 5 -# W_rf_a3 [4:0] $end
$var reg 2 .# W_sel_result [1:0] $end
$var reg 1 3 W_we_rf $end
$upscope $end
$scope module sign_ext $end
$var wire 32 /# instruction [31:0] $end
$var wire 3 0# sel_ext [2:0] $end
$var reg 32 1# imm_extended [31:0] $end
$var reg 12 2# immediate_12bit [11:0] $end
$var reg 13 3# immediate_13bit [12:0] $end
$var reg 20 4# immediate_20bit [19:0] $end
$var reg 21 5# immediate_21bit [20:0] $end
$var reg 1 6# sign_bit $end
$upscope $end
$scope module target_pc_adder $end
$var wire 32 7# imm_extended [31:0] $end
$var wire 32 8# pc [31:0] $end
$var wire 32 9# pc_plus_imm [31:0] $end
$upscope $end
$scope module zero_check $end
$var wire 32 :# value [31:0] $end
$var wire 1 K is_zero $end
$upscope $end
$upscope $end
$upscope $end
$enddefinitions $end
#0
$dumpvars
b0 :#
b0 9#
b0 8#
b0 7#
06#
bx 5#
bx 4#
bx 3#
b0 2#
b0 1#
b0 0#
b10011 /#
b0 .#
b0 -#
b0 ,#
b0 +#
b0 *#
b0 )#
b0 (#
b0 '#
b0 &#
bx %#
b0 $#
b0 ##
b10011 "#
b0 !#
b0 ~"
b10100000000000010010011 }"
b100 |"
b0 {"
b0 z"
b0 y"
b0 x"
b0 w"
b0 v"
b0 u"
b0 t"
b0 s"
b0 r"
b0 q"
b0 p"
b0 o"
b0 n"
b0 m"
b0 l"
b0 k"
b0 j"
b0 i"
b0 h"
b0 g"
b0 f"
b0 e"
b0 d"
b0 c"
b0 b"
b0 a"
b0 `"
b0 _"
b0 ^"
b0 ]"
b0 \"
b0 ["
b0 Z"
b100 Y"
b0 X"
b100 W"
b0 V"
b0 U"
b0 T"
0S"
b0 R"
b0 Q"
b0 P"
0O"
b0 N"
b0 M"
b0 L"
0K"
b100 J"
b100 I"
b0 H"
b0 G"
b0 F"
b0 E"
b0 D"
b0 C"
b0 B"
b0 A"
b0 @"
b0 ?"
b0 >"
b0 ="
b0 <"
b0 ;"
b0 :"
b0 9"
b0 8"
b0 7"
b0 6"
05"
b0 4"
b0 3"
b0 2"
b0 1"
00"
b0 /"
b0 ."
b0 -"
0,"
0+"
b0 *"
b0 )"
b10 ("
b0 '"
b0 &"
b0 %"
b10011 $"
b0 #"
b0 ""
b0 !"
b0 ~
b0 }
b0 |
b0 {
b0 z
b0 y
b0 x
b0 w
b0 v
b0 u
b10100000000000010010011 t
b0 s
bx r
b0 q
b0 p
1o
1n
b0 m
b0 l
b0 k
0j
b0 i
b10011 h
0g
b0 f
b0 e
1d
b0 c
b0 b
b0 a
0`
1_
b0 ^
b0 ]
b0 \
b0 [
0Z
b0 Y
b0 X
b0 W
0V
b0 U
b0 T
b0 S
b0 R
b0 Q
0P
b0 O
b0 N
0M
0L
1K
b0 J
b100 I
b10100000000000010010011 H
0G
0F
1E
b0 D
b0 C
bx B
b0 A
b0 @
b0 ?
b0 >
0=
0<
1;
b0 :
b0 9
b0 8
b0 7
b0 6
b0 5
b0 4
03
b0 2
b0 1
b0 0
b0 /
0.
b100 -
b10011 ,
b0 +
b0 *
b0 )
b0 (
b0 '
1&
b0 %
b0 $
b0 #
0"
0!
$end
#20
1"
#30
bx B
bx r
bx %#
0n
1!
#40
0!
#50
b0 B
b0 r
b0 %#
0&
0o
1!
#60
0!
#70
bx e
bx z
bx j"
b101 a
b101 8"
b101 H"
b101 i
b101 :"
b101 n"
b101 1#
b101 2#
b1 #
b1 h"
b1 +
b101 %
b101 *"
b101 l"
b101 '
b101 v
b1000 -
b1000 I"
b1000 Y"
b101000000000000100010011 H
b101000000000000100010011 t
b101000000000000100010011 }"
bx B
bx r
bx %#
1L
1P
b100 l
b100 o"
b100 !#
b10100000000000010010011 h
b10100000000000010010011 "#
b10100000000000010010011 /#
b1000 I
b1000 J"
b1000 W"
b1000 |"
b100 J
b100 s
b100 X"
b100 Z"
b100 {"
1!
#80
0!
#90
0K
b101 [
b101 !"
b101 ["
b101 :#
b101 ~
b101 ""
b1100 -
b1100 I"
b1100 Y"
b100001010000110010011 H
b100001010000110010011 t
b100001010000110010011 }"
b1010 i
b1010 :"
b1010 n"
b1010 1#
b1010 2#
b10 #
b10 h"
b10 +
b1010 %
b1010 *"
b1010 l"
b1010 '
b1010 v
b101 0
b101 |
b101 ;"
bx 1
bx <"
bx D"
b0 B
b0 r
b0 %#
b1100 I
b1100 J"
b1100 W"
b1100 |"
b1000 J
b1000 s
b1000 X"
b1000 Z"
b1000 {"
b1000 l
b1000 o"
b1000 !#
b1110 a
b1110 8"
b1110 H"
b100 m
b100 9"
b100 p"
b100 ~"
b101000000000000100010011 h
b101000000000000100010011 "#
b101000000000000100010011 /#
b100 ]
b100 `"
b100 r"
b101 N
b101 9#
b101 Y
b101 ="
b101 _"
b101 t"
b101 7#
b101 Q
b101 2"
b101 y"
b1 U
b1 4"
b1 ^"
b1 u"
bx S
bx G"
bx ]"
bx w"
1<
bx 8
bx R"
bx +#
1!
#100
0!
#110
b1010 [
b1010 !"
b1010 ["
b1010 :#
b1010 ~
b1010 ""
bx f
bx y
bx i"
b100 k
b100 %"
b100 g"
b1010 0
b1010 |
b1010 ;"
b1 i
b1 :"
b1 n"
b1 1#
b1 2#
b11 #
b11 h"
b11 +
b1 %
b1 *"
b1 l"
b1 '
b1 v
b1 $
b1 )"
b1 k"
b1 (
b1 u
b10 /
b10 #"
b10000 -
b10000 I"
b10000 Y"
b100001011001000010011 H
b100001011001000010011 t
b100001011001000010011 }"
bx B
bx r
bx %#
b0 8
b0 R"
b0 +#
13
b101 @
b101 d"
b101 &#
b100 D
b100 a"
b100 ##
b1 ?
b1 /"
b1 e"
b1 '#
bx A
bx p
bx c"
b101 C
b101 q
b101 @"
b101 E"
b101 b"
b101 $#
b1000 ]
b1000 `"
b1000 r"
b100 ^
b100 q"
b100 8#
b1110 N
b1110 9#
b1010 Y
b1010 ="
b1010 _"
b1010 t"
b1010 7#
b1010 Q
b1010 2"
b1010 y"
b10 U
b10 4"
b10 ^"
b10 u"
b1100 l
b1100 o"
b1100 !#
b1001 a
b1001 8"
b1001 H"
b1000 m
b1000 9"
b1000 p"
b1000 ~"
b100001010000110010011 h
b100001010000110010011 "#
b100001010000110010011 /#
b10000 I
b10000 J"
b10000 W"
b10000 |"
b1100 J
b1100 s
b1100 X"
b1100 Z"
b1100 {"
1!
#120
0!
#130
1K
b101 2
b101 }
b101 ?"
b110 k
b110 %"
b110 g"
b110 ~
b1 ""
b101 1
b101 <"
b101 D"
b101 6
b101 w
b101 A"
b101 F"
b101 L"
b10100 -
b10100 I"
b10100 Y"
b100001100001010010011 H
b100001100001010010011 t
b100001100001010010011 }"
b100 #
b100 h"
b100 +
b11 /
b11 #"
b1 0
b1 |
b1 ;"
b0 [
b0 !"
b0 ["
b0 :#
b100 )
b100 N"
b100 T"
b1 W
b1 7"
b1 C"
b1 X
b1 6"
b1 >"
b101 *
b101 M"
b101 P"
b0 B
b0 r
b0 %#
b10100 I
b10100 J"
b10100 W"
b10100 |"
b10000 J
b10000 s
b10000 X"
b10000 Z"
b10000 {"
b10000 l
b10000 o"
b10000 !#
b1101 a
b1101 8"
b1101 H"
b1100 m
b1100 9"
b1100 p"
b1100 ~"
b100001011001000010011 h
b100001011001000010011 "#
b100001011001000010011 /#
b1100 ]
b1100 `"
b1100 r"
b1000 ^
b1000 q"
b1000 8#
b1001 N
b1001 9#
b1 Y
b1 ="
b1 _"
b1 t"
b1 7#
b1 Q
b1 2"
b1 y"
b1 R
b1 3"
b1 x"
b11 U
b11 4"
b11 ^"
b11 u"
bx T
bx B"
bx v"
b100 \
b100 {
b100 s"
b1010 @
b1010 d"
b1010 &#
b1000 D
b1000 a"
b1000 ##
b10 ?
b10 /"
b10 e"
b10 '#
b1010 C
b1010 q
b1010 @"
b1010 E"
b1010 b"
b1010 $#
b101 7
b101 V"
b101 ,#
b100 :
b100 U"
b100 )#
b1 5
b1 x
b1 -"
b1 -#
b101 9
b101 Q"
b101 *#
bx 8
bx R"
bx +#
1!
#140
b101 e
b101 z
b101 j"
b101 f
b101 y
b101 i"
0!
#150
b1010 6
b1010 w
b1010 A"
b1010 F"
b1010 L"
b1000 k
b1000 %"
b1000 g"
b1000 )
b1000 N"
b1000 T"
b1010 *
b1010 M"
b1010 P"
b0 W
b0 7"
b0 C"
b0 X
b0 6"
b0 >"
b101 #
b101 h"
b101 +
b100 /
b100 #"
b11000 -
b11000 I"
b11000 Y"
b100001110001100010011 H
b100001110001100010011 t
b100001110001100010011 }"
bx B
bx r
bx %#
b1010 7
b1010 V"
b1010 ,#
b1000 :
b1000 U"
b1000 )#
b10 5
b10 x
b10 -"
b10 -#
b1010 9
b1010 Q"
b1010 *#
b0 8
b0 R"
b0 +#
b1 @
b1 d"
b1 &#
b1100 D
b1100 a"
b1100 ##
b11 ?
b11 /"
b11 e"
b11 '#
b0 C
b0 q
b0 @"
b0 E"
b0 b"
b0 $#
b10000 ]
b10000 `"
b10000 r"
b1101 N
b1101 9#
b1100 ^
b1100 q"
b1100 8#
b100 U
b100 4"
b100 ^"
b100 u"
b101 S
b101 G"
b101 ]"
b101 w"
b101 T
b101 B"
b101 v"
b110 \
b110 {
b110 s"
b10100 l
b10100 o"
b10100 !#
b10001 a
b10001 8"
b10001 H"
b10000 m
b10000 9"
b10000 p"
b10000 ~"
b100001100001010010011 h
b100001100001010010011 "#
b100001100001010010011 /#
b11000 I
b11000 J"
b11000 W"
b11000 |"
b10100 J
b10100 s
b10100 X"
b10100 Z"
b10100 {"
1!
#160
0!
#170
b1100 k
b1100 %"
b1100 g"
b0 6
b0 w
b0 A"
b0 F"
b0 L"
b11100 -
b11100 I"
b11100 Y"
b100001111001110010011 H
b100001111001110010011 t
b100001111001110010011 }"
b110 #
b110 h"
b110 +
b110 /
b110 #"
0K
b100 [
b100 !"
b100 ["
b100 :#
b1100 )
b1100 N"
b1100 T"
b0 *
b0 M"
b0 P"
b0 B
b0 r
b0 %#
b11100 I
b11100 J"
b11100 W"
b11100 |"
b11000 J
b11000 s
b11000 X"
b11000 Z"
b11000 {"
b11000 l
b11000 o"
b11000 !#
b10101 a
b10101 8"
b10101 H"
b10100 m
b10100 9"
b10100 p"
b10100 ~"
b100001110001100010011 h
b100001110001100010011 "#
b100001110001100010011 /#
b10100 ]
b10100 `"
b10100 r"
b10001 N
b10001 9#
b10000 ^
b10000 q"
b10000 8#
b101 U
b101 4"
b101 ^"
b101 u"
b1000 \
b1000 {
b1000 s"
b10000 D
b10000 a"
b10000 ##
b100 ?
b100 /"
b100 e"
b100 '#
b101 A
b101 p
b101 c"
b1 7
b1 V"
b1 ,#
b1100 :
b1100 U"
b1100 )#
b11 5
b11 x
b11 -"
b11 -#
b0 9
b0 Q"
b0 *#
bx 8
bx R"
bx +#
1!
#180
0!
#190
b1110 k
b1110 %"
b1110 g"
b10000 )
b10000 N"
b10000 T"
b101 [
b101 !"
b101 ["
b101 :#
b111 #
b111 h"
b111 +
b111 /
b111 #"
b100000 -
b100000 I"
b100000 Y"
b100001001000100010011 H
b100001001000100010011 t
b100001001000100010011 }"
bx B
bx r
bx %#
b10000 :
b10000 U"
b10000 )#
b100 5
b100 x
b100 -"
b100 -#
b0 8
b0 R"
b0 +#
b10100 D
b10100 a"
b10100 ##
b101 ?
b101 /"
b101 e"
b101 '#
b100 C
b100 q
b100 @"
b100 E"
b100 b"
b100 $#
b11000 ]
b11000 `"
b11000 r"
b10101 N
b10101 9#
b10100 ^
b10100 q"
b10100 8#
b110 U
b110 4"
b110 ^"
b110 u"
b1100 \
b1100 {
b1100 s"
b11100 l
b11100 o"
b11100 !#
b11001 a
b11001 8"
b11001 H"
b11000 m
b11000 9"
b11000 p"
b11000 ~"
b100001111001110010011 h
b100001111001110010011 "#
b100001111001110010011 /#
b100000 I
b100000 J"
b100000 W"
b100000 |"
b11100 J
b11100 s
b11100 X"
b11100 Z"
b11100 {"
1!
#200
0!
#210
b10 k
b10 %"
b10 g"
b100 6
b100 w
b100 A"
b100 F"
b100 L"
b100100 -
b100100 I"
b100100 Y"
b100001101000110010011 H
b100001101000110010011 t
b100001101000110010011 }"
b10 #
b10 h"
b10 +
b1 /
b1 #"
b1 [
b1 !"
b1 ["
b1 :#
b10100 )
b10100 N"
b10100 T"
b100 *
b100 M"
b100 P"
b0 B
b0 r
b0 %#
b100100 I
b100100 J"
b100100 W"
b100100 |"
b100000 J
b100000 s
b100000 X"
b100000 Z"
b100000 {"
b100000 l
b100000 o"
b100000 !#
b11101 a
b11101 8"
b11101 H"
b11100 m
b11100 9"
b11100 p"
b11100 ~"
b100001001000100010011 h
b100001001000100010011 "#
b100001001000100010011 /#
b11100 ]
b11100 `"
b11100 r"
b11001 N
b11001 9#
b11000 ^
b11000 q"
b11000 8#
b111 U
b111 4"
b111 ^"
b111 u"
b1110 \
b1110 {
b1110 s"
b11000 D
b11000 a"
b11000 ##
b110 ?
b110 /"
b110 e"
b110 '#
b101 C
b101 q
b101 @"
b101 E"
b101 b"
b101 $#
b10100 :
b10100 U"
b10100 )#
b101 5
b101 x
b101 -"
b101 -#
b100 9
b100 Q"
b100 *#
bx 8
bx R"
bx +#
1!
#220
0!
#230
b101 6
b101 w
b101 A"
b101 F"
b101 L"
b1010 k
b1010 %"
b1010 g"
b11000 )
b11000 N"
b11000 T"
b101 *
b101 M"
b101 P"
b1010 [
b1010 !"
b1010 ["
b1010 :#
b11 #
b11 h"
b11 +
b101 /
b101 #"
b101000 -
b101000 I"
b101000 Y"
b1000000000100001101001000010011 H
b1000000000100001101001000010011 t
b1000000000100001101001000010011 }"
bx B
bx r
bx %#
b11000 :
b11000 U"
b11000 )#
b110 5
b110 x
b110 -"
b110 -#
b101 9
b101 Q"
b101 *#
b0 8
b0 R"
b0 +#
b11100 D
b11100 a"
b11100 ##
b111 ?
b111 /"
b111 e"
b111 '#
b1 C
b1 q
b1 @"
b1 E"
b1 b"
b1 $#
b100000 ]
b100000 `"
b100000 r"
b11101 N
b11101 9#
b11100 ^
b11100 q"
b11100 8#
b10 U
b10 4"
b10 ^"
b10 u"
b10 \
b10 {
b10 s"
b100100 l
b100100 o"
b100100 !#
b100001 a
b100001 8"
b100001 H"
b100000 m
b100000 9"
b100000 p"
b100000 ~"
b100001101000110010011 h
b100001101000110010011 "#
b100001101000110010011 /#
b101000 I
b101000 J"
b101000 W"
b101000 |"
b100100 J
b100100 s
b100100 X"
b100100 Z"
b100100 {"
1!
#240
0!
#250
b1 6
b1 w
b1 A"
b1 F"
b1 L"
b101100 -
b101100 I"
b101100 Y"
b1000001000000110110011 H
b1000001000000110110011 t
b1000001000000110110011 }"
b10000000001 i
b10000000001 :"
b10000000001 n"
b10000000001 1#
b10000000001 2#
b100 #
b100 h"
b100 +
1.
b10 [
b10 !"
b10 ["
b10 :#
b11100 )
b11100 N"
b11100 T"
b1 *
b1 M"
b1 P"
b0 B
b0 r
b0 %#
b101100 I
b101100 J"
b101100 W"
b101100 |"
b101000 J
b101000 s
b101000 X"
b101000 Z"
b101000 {"
b101000 l
b101000 o"
b101000 !#
b10000100101 a
b10000100101 8"
b10000100101 H"
b100100 m
b100100 9"
b100100 p"
b100100 ~"
b1000000000100001101001000010011 h
b1000000000100001101001000010011 "#
b1000000000100001101001000010011 /#
b100100 ]
b100100 `"
b100100 r"
b100001 N
b100001 9#
b100000 ^
b100000 q"
b100000 8#
b11 U
b11 4"
b11 ^"
b11 u"
b1010 \
b1010 {
b1010 s"
b100000 D
b100000 a"
b100000 ##
b10 ?
b10 /"
b10 e"
b10 '#
b1010 C
b1010 q
b1010 @"
b1010 E"
b1010 b"
b1010 $#
b11100 :
b11100 U"
b11100 )#
b111 5
b111 x
b111 -"
b111 -#
b1 9
b1 Q"
b1 *#
bx 8
bx R"
bx +#
1!
#260
0!
#270
b1010 6
b1010 w
b1010 A"
b1010 F"
b1010 L"
b10000000110 ~
b10000000001 ""
b1010 e
b1010 z
b1010 j"
b0 k
b0 %"
b0 g"
b1 ("
1_
0d
b100000 )
b100000 N"
b100000 T"
b1010 *
b1010 M"
b1010 P"
b10000000001 0
b10000000001 |
b10000000001 ;"
b10 i
b10 :"
b10 n"
b10 1#
b10 2#
b11 #
b11 h"
b11 +
b10 %
b10 *"
b10 l"
b10 '
b10 v
0.
b0 /
b0 #"
b110011 ,
b110011 $"
b110000 -
b110000 I"
b110000 Y"
b1000000001000001000000110110011 H
b1000000001000001000000110110011 t
b1000000001000001000000110110011 }"
bx B
bx r
bx %#
b100000 :
b100000 U"
b100000 )#
b10 5
b10 x
b10 -"
b10 -#
b1010 9
b1010 Q"
b1010 *#
b0 8
b0 R"
b0 +#
b100100 D
b100100 a"
b100100 ##
b11 ?
b11 /"
b11 e"
b11 '#
b10 C
b10 q
b10 @"
b10 E"
b10 b"
b10 $#
b101000 ]
b101000 `"
b101000 r"
b100100 ^
b100100 q"
b100100 8#
b10000100101 N
b10000100101 9#
b10000000001 Y
b10000000001 ="
b10000000001 _"
b10000000001 t"
b10000000001 7#
b100 U
b100 4"
b100 ^"
b100 u"
b101100 l
b101100 o"
b101100 !#
b101010 a
b101010 8"
b101010 H"
b101000 m
b101000 9"
b101000 p"
b101000 ~"
b1000001000000110110011 h
b1000001000000110110011 "#
b1000001000000110110011 /#
b110000 I
b110000 J"
b110000 W"
b110000 |"
b101100 J
b101100 s
b101100 X"
b101100 Z"
b101100 {"
1!
#280
0!
